<?xml version="1.0" encoding="UTF-8" standalone="no"?>
<svg
   xmlns:dc="http://purl.org/dc/elements/1.1/"
   xmlns:cc="http://creativecommons.org/ns#"
   xmlns:rdf="http://www.w3.org/1999/02/22-rdf-syntax-ns#"
   xmlns:svg="http://www.w3.org/2000/svg"
   xmlns="http://www.w3.org/2000/svg"
   xmlns:sodipodi="http://sodipodi.sourceforge.net/DTD/sodipodi-0.dtd"
   xmlns:inkscape="http://www.inkscape.org/namespaces/inkscape"
   style="font-style:normal;font-weight:normal;font-size:12px;font-family:Dialog;color-interpolation:auto;fill:#000000;fill-opacity:1;stroke:#000000;stroke-width:1;stroke-linecap:square;stroke-linejoin:miter;stroke-miterlimit:10;stroke-dasharray:none;stroke-dashoffset:0;stroke-opacity:1;color-rendering:auto;image-rendering:auto;shape-rendering:auto;text-rendering:auto"
   width="789.02777"
   height="617.29657"
   id="svg2"
   version="1.1"
   inkscape:version="0.91 r13725"
   sodipodi:docname="diagramaCondicoesIniciais.svg">
  <metadata
     id="metadata397">
    <rdf:RDF>
      <cc:Work
         rdf:about="">
        <dc:format>image/svg+xml</dc:format>
        <dc:type
           rdf:resource="http://purl.org/dc/dcmitype/StillImage" />
        <dc:title></dc:title>
      </cc:Work>
    </rdf:RDF>
  </metadata>
  <sodipodi:namedview
     pagecolor="#ffffff"
     bordercolor="#666666"
     borderopacity="1"
     objecttolerance="10"
     gridtolerance="10"
     guidetolerance="10"
     inkscape:pageopacity="0"
     inkscape:pageshadow="2"
     inkscape:window-width="1366"
     inkscape:window-height="744"
     id="namedview395"
     showgrid="false"
     fit-margin-top="0"
     fit-margin-left="0"
     fit-margin-right="0"
     fit-margin-bottom="0"
     inkscape:zoom="0.70607149"
     inkscape:cx="331.89421"
     inkscape:cy="123.04163"
     inkscape:window-x="0"
     inkscape:window-y="24"
     inkscape:window-maximized="1"
     inkscape:current-layer="g379"
     inkscape:document-units="mm" />
  <!--Generated by the Batik Graphics2D SVG Generator-->
  <defs
     id="genericDefs">
    <marker
       inkscape:stockid="Arrow2Mend"
       orient="auto"
       refY="0.0"
       refX="0.0"
       id="marker4621"
       style="overflow:visible;"
       inkscape:isstock="true">
      <path
         id="path4623"
         style="fill-rule:evenodd;stroke-width:0.625;stroke-linejoin:round;stroke:#000000;stroke-opacity:1;fill:#000000;fill-opacity:1"
         d="M 8.7185878,4.0337352 L -2.2072895,0.016013256 L 8.7185884,-4.0017078 C 6.9730900,-1.6296469 6.9831476,1.6157441 8.7185878,4.0337352 z "
         transform="scale(0.6) rotate(180) translate(0,0)" />
    </marker>
    <marker
       inkscape:stockid="Arrow1Mend"
       orient="auto"
       refY="0.0"
       refX="0.0"
       id="Arrow1Mend"
       style="overflow:visible;"
       inkscape:isstock="true">
      <path
         id="path4340"
         d="M 0.0,0.0 L 5.0,-5.0 L -12.5,0.0 L 5.0,5.0 L 0.0,0.0 z "
         style="fill-rule:evenodd;stroke:#000000;stroke-width:1.0pt;"
         transform="scale(0.4) rotate(180) translate(10,0)" />
    </marker>
    <marker
       inkscape:stockid="Arrow2Mend"
       orient="auto"
       refY="0.0"
       refX="0.0"
       id="Arrow2Mend"
       style="overflow:visible;"
       inkscape:isstock="true">
      <path
         id="path4358"
         style="fill-rule:evenodd;stroke-width:0.625;stroke-linejoin:round;stroke:#000000;stroke-opacity:1;fill:#000000;fill-opacity:1"
         d="M 8.7185878,4.0337352 L -2.2072895,0.016013256 L 8.7185884,-4.0017078 C 6.9730900,-1.6296469 6.9831476,1.6157441 8.7185878,4.0337352 z "
         transform="scale(0.6) rotate(180) translate(0,0)" />
    </marker>
  </defs>
  <g
     id="g5"
     transform="translate(-301.08744,-33.58252)">
    <defs
       id="defs1">
      <clipPath
         clipPathUnits="userSpaceOnUse"
         id="clipPath1">
        <path
           d="m 0,0 1366,0 0,689 L 0,689 0,0 Z"
           id="path9"
           inkscape:connector-curvature="0" />
      </clipPath>
      <font
         horiz-adv-x="60.009766"
         id="font1"
         horiz-origin-x="0"
         horiz-origin-y="0"
         vert-origin-x="45"
         vert-origin-y="90"
         vert-adv-y="90">
        <font-face
           ascent="92.822266"
           descent="23.583984"
           units-per-em="100"
           style="font-style:normal; font-family:SansSerif; font-weight:normal;"
           id="font-face12" />
        <missing-glyph
           horiz-adv-x="60.009766"
           d="M4.9844 -17.6719 L4.9844 70.5156 L54.9844 70.5156 L54.9844 -17.6719 L4.9844 -17.6719 ZM10.5938 -12.1094 L49.4219 -12.1094 L49.4219 64.8906 L10.5938 64.8906 L10.5938 -12.1094 Z"
           id="missing-glyph14" />
        <glyph
           unicode="0"
           horiz-adv-x="63.623047"
           d="M31.7812 66.4062 Q24.1719 66.4062 20.3359 58.9141 Q16.5 51.4219 16.5 36.375 Q16.5 21.3906 20.3359 13.8906 Q24.1719 6.3906 31.7812 6.3906 Q39.4531 6.3906 43.2891 13.8906 Q47.125 21.3906 47.125 36.375 Q47.125 51.4219 43.2891 58.9141 Q39.4531 66.4062 31.7812 66.4062 ZM31.7812 74.2188 Q44.0469 74.2188 50.5156 64.5234 Q56.9844 54.8281 56.9844 36.375 Q56.9844 17.9688 50.5156 8.2734 Q44.0469 -1.4219 31.7812 -1.4219 Q19.5312 -1.4219 13.0625 8.2734 Q6.5938 17.9688 6.5938 36.375 Q6.5938 54.8281 13.0625 64.5234 Q19.5312 74.2188 31.7812 74.2188 Z"
           id="glyph16" />
        <glyph
           unicode="1"
           horiz-adv-x="63.623047"
           d="M12.4062 8.2969 L28.5156 8.2969 L28.5156 63.9219 L10.9844 60.4062 L10.9844 69.3906 L28.4219 72.9062 L38.2812 72.9062 L38.2812 8.2969 L54.3906 8.2969 L54.3906 0 L12.4062 0 L12.4062 8.2969 Z"
           id="glyph18" />
        <glyph
           unicode="."
           horiz-adv-x="31.78711"
           d="M10.6875 12.4062 L21 12.4062 L21 0 L10.6875 0 L10.6875 12.4062 Z"
           id="glyph20" />
        <glyph
           unicode="2"
           horiz-adv-x="63.623047"
           d="M19.1875 8.2969 L53.6094 8.2969 L53.6094 0 L7.3281 0 L7.3281 8.2969 Q12.9375 14.1094 22.6328 23.8984 Q32.3281 33.6875 34.8125 36.5312 Q39.5469 41.8438 41.4297 45.5312 Q43.3125 49.2188 43.3125 52.7812 Q43.3125 58.5938 39.2344 62.2578 Q35.1562 65.9219 28.6094 65.9219 Q23.9688 65.9219 18.8203 64.3125 Q13.6719 62.7031 7.8125 59.4219 L7.8125 69.3906 Q13.7656 71.7812 18.9453 73 Q24.125 74.2188 28.4219 74.2188 Q39.75 74.2188 46.4844 68.5547 Q53.2188 62.8906 53.2188 53.4219 Q53.2188 48.9219 51.5391 44.8984 Q49.8594 40.875 45.4062 35.4062 Q44.1875 33.9844 37.6484 27.2188 Q31.1094 20.4531 19.1875 8.2969 Z"
           id="glyph22" />
        <glyph
           unicode="3"
           horiz-adv-x="63.623047"
           d="M40.5781 39.3125 Q47.6562 37.7969 51.6328 33.0078 Q55.6094 28.2188 55.6094 21.1875 Q55.6094 10.4062 48.1875 4.4922 Q40.7656 -1.4219 27.0938 -1.4219 Q22.5156 -1.4219 17.6562 -0.5156 Q12.7969 0.3906 7.625 2.2031 L7.625 11.7188 Q11.7188 9.3281 16.6016 8.1094 Q21.4844 6.8906 26.8125 6.8906 Q36.0781 6.8906 40.9375 10.5469 Q45.7969 14.2031 45.7969 21.1875 Q45.7969 27.6406 41.2812 31.2734 Q36.7656 34.9062 28.7188 34.9062 L20.2188 34.9062 L20.2188 43.0156 L29.1094 43.0156 Q36.375 43.0156 40.2344 45.9219 Q44.0938 48.8281 44.0938 54.2969 Q44.0938 59.9062 40.1172 62.9141 Q36.1406 65.9219 28.7188 65.9219 Q24.6562 65.9219 20.0156 65.0391 Q15.375 64.1562 9.8125 62.3125 L9.8125 71.0938 Q15.4375 72.6562 20.3438 73.4375 Q25.25 74.2188 29.5938 74.2188 Q40.8281 74.2188 47.3672 69.1172 Q53.9062 64.0156 53.9062 55.3281 Q53.9062 49.2656 50.4375 45.0938 Q46.9688 40.9219 40.5781 39.3125 Z"
           id="glyph24" />
        <glyph
           unicode="4"
           horiz-adv-x="63.623047"
           d="M37.7969 64.3125 L12.8906 25.3906 L37.7969 25.3906 L37.7969 64.3125 ZM35.2031 72.9062 L47.6094 72.9062 L47.6094 25.3906 L58.0156 25.3906 L58.0156 17.1875 L47.6094 17.1875 L47.6094 0 L37.7969 0 L37.7969 17.1875 L4.8906 17.1875 L4.8906 26.7031 L35.2031 72.9062 Z"
           id="glyph26" />
        <glyph
           unicode="5"
           horiz-adv-x="63.623047"
           d="M10.7969 72.9062 L49.5156 72.9062 L49.5156 64.5938 L19.8281 64.5938 L19.8281 46.7344 Q21.9688 47.4688 24.1172 47.8281 Q26.2656 48.1875 28.4219 48.1875 Q40.625 48.1875 47.7578 41.5 Q54.8906 34.8125 54.8906 23.3906 Q54.8906 11.625 47.5625 5.1016 Q40.2344 -1.4219 26.9062 -1.4219 Q22.3125 -1.4219 17.5547 -0.6406 Q12.7969 0.1406 7.7188 1.7031 L7.7188 11.625 Q12.1094 9.2344 16.7969 8.0625 Q21.4844 6.8906 26.7031 6.8906 Q35.1562 6.8906 40.0859 11.3281 Q45.0156 15.7656 45.0156 23.3906 Q45.0156 31 40.0859 35.4453 Q35.1562 39.8906 26.7031 39.8906 Q22.75 39.8906 18.8203 39.0156 Q14.8906 38.1406 10.7969 36.2812 L10.7969 72.9062 Z"
           id="glyph28" />
        <glyph
           unicode="6"
           horiz-adv-x="63.623047"
           d="M33.0156 40.375 Q26.375 40.375 22.4922 35.8359 Q18.6094 31.2969 18.6094 23.3906 Q18.6094 15.5312 22.4922 10.9609 Q26.375 6.3906 33.0156 6.3906 Q39.6562 6.3906 43.5312 10.9609 Q47.4062 15.5312 47.4062 23.3906 Q47.4062 31.2969 43.5312 35.8359 Q39.6562 40.375 33.0156 40.375 ZM52.5938 71.2969 L52.5938 62.3125 Q48.875 64.0625 45.0938 64.9922 Q41.3125 65.9219 37.5938 65.9219 Q27.8281 65.9219 22.6797 59.3281 Q17.5312 52.7344 16.7969 39.4062 Q19.6719 43.6562 24.0234 45.9219 Q28.375 48.1875 33.5938 48.1875 Q44.5781 48.1875 50.9531 41.5234 Q57.3281 34.8594 57.3281 23.3906 Q57.3281 12.1562 50.6875 5.3672 Q44.0469 -1.4219 33.0156 -1.4219 Q20.3594 -1.4219 13.6719 8.2734 Q6.9844 17.9688 6.9844 36.375 Q6.9844 53.6562 15.1875 63.9375 Q23.3906 74.2188 37.2031 74.2188 Q40.9219 74.2188 44.7031 73.4844 Q48.4844 72.75 52.5938 71.2969 Z"
           id="glyph30" />
        <glyph
           unicode="7"
           horiz-adv-x="63.623047"
           d="M8.2031 72.9062 L55.0781 72.9062 L55.0781 68.7031 L28.6094 0 L18.3125 0 L43.2188 64.5938 L8.2031 64.5938 L8.2031 72.9062 Z"
           id="glyph32" />
        <glyph
           unicode="8"
           horiz-adv-x="63.623047"
           d="M31.7812 34.625 Q24.75 34.625 20.7266 30.8594 Q16.7031 27.0938 16.7031 20.5156 Q16.7031 13.9219 20.7266 10.1562 Q24.75 6.3906 31.7812 6.3906 Q38.8125 6.3906 42.8672 10.1797 Q46.9219 13.9688 46.9219 20.5156 Q46.9219 27.0938 42.8984 30.8594 Q38.875 34.625 31.7812 34.625 ZM21.9219 38.8125 Q15.5781 40.375 12.0391 44.7266 Q8.5 49.0781 8.5 55.3281 Q8.5 64.0625 14.7266 69.1406 Q20.9531 74.2188 31.7812 74.2188 Q42.6719 74.2188 48.875 69.1406 Q55.0781 64.0625 55.0781 55.3281 Q55.0781 49.0781 51.5391 44.7266 Q48 40.375 41.7031 38.8125 Q48.8281 37.1562 52.8047 32.3203 Q56.7812 27.4844 56.7812 20.5156 Q56.7812 9.9062 50.3125 4.2422 Q43.8438 -1.4219 31.7812 -1.4219 Q19.7344 -1.4219 13.2578 4.2422 Q6.7812 9.9062 6.7812 20.5156 Q6.7812 27.4844 10.7891 32.3203 Q14.7969 37.1562 21.9219 38.8125 ZM18.3125 54.3906 Q18.3125 48.7344 21.8516 45.5625 Q25.3906 42.3906 31.7812 42.3906 Q38.1406 42.3906 41.7266 45.5625 Q45.3125 48.7344 45.3125 54.3906 Q45.3125 60.0625 41.7266 63.2344 Q38.1406 66.4062 31.7812 66.4062 Q25.3906 66.4062 21.8516 63.2344 Q18.3125 60.0625 18.3125 54.3906 Z"
           id="glyph34" />
        <glyph
           unicode="9"
           horiz-adv-x="63.623047"
           d="M10.9844 1.5156 L10.9844 10.5 Q14.7031 8.7344 18.5078 7.8125 Q22.3125 6.8906 25.9844 6.8906 Q35.75 6.8906 40.8984 13.4531 Q46.0469 20.0156 46.7812 33.4062 Q43.9531 29.2031 39.6016 26.9531 Q35.25 24.7031 29.9844 24.7031 Q19.0469 24.7031 12.6719 31.3203 Q6.2969 37.9375 6.2969 49.4219 Q6.2969 60.6406 12.9375 67.4297 Q19.5781 74.2188 30.6094 74.2188 Q43.2656 74.2188 49.9297 64.5234 Q56.5938 54.8281 56.5938 36.375 Q56.5938 19.1406 48.4141 8.8594 Q40.2344 -1.4219 26.4219 -1.4219 Q22.7031 -1.4219 18.8984 -0.6875 Q15.0938 0.0469 10.9844 1.5156 ZM30.6094 32.4219 Q37.25 32.4219 41.1328 36.9609 Q45.0156 41.5 45.0156 49.4219 Q45.0156 57.2812 41.1328 61.8438 Q37.25 66.4062 30.6094 66.4062 Q23.9688 66.4062 20.0938 61.8438 Q16.2188 57.2812 16.2188 49.4219 Q16.2188 41.5 20.0938 36.9609 Q23.9688 32.4219 30.6094 32.4219 Z"
           id="glyph36" />
        <glyph
           unicode="e"
           horiz-adv-x="61.523438"
           d="M56.2031 29.5938 L56.2031 25.2031 L14.8906 25.2031 Q15.4844 15.9219 20.4844 11.0625 Q25.4844 6.2031 34.4219 6.2031 Q39.5938 6.2031 44.4531 7.4688 Q49.3125 8.7344 54.1094 11.2812 L54.1094 2.7812 Q49.2656 0.7344 44.1875 -0.3438 Q39.1094 -1.4219 33.8906 -1.4219 Q20.7969 -1.4219 13.1562 6.1953 Q5.5156 13.8125 5.5156 26.8125 Q5.5156 40.2344 12.7656 48.1172 Q20.0156 56 32.3281 56 Q43.3594 56 49.7812 48.8984 Q56.2031 41.7969 56.2031 29.5938 ZM47.2188 32.2344 Q47.125 39.5938 43.0938 43.9922 Q39.0625 48.3906 32.4219 48.3906 Q24.9062 48.3906 20.3906 44.1406 Q15.875 39.8906 15.1875 32.1719 L47.2188 32.2344 Z"
           id="glyph38" />
        <glyph
           unicode="R"
           horiz-adv-x="69.48242"
           d="M44.3906 34.1875 Q47.5625 33.1094 50.5625 29.5938 Q53.5625 26.0781 56.5938 19.9219 L66.6094 0 L56 0 L46.6875 18.7031 Q43.0625 26.0312 39.6719 28.4219 Q36.2812 30.8125 30.4219 30.8125 L19.6719 30.8125 L19.6719 0 L9.8125 0 L9.8125 72.9062 L32.0781 72.9062 Q44.5781 72.9062 50.7344 67.6797 Q56.8906 62.4531 56.8906 51.9062 Q56.8906 45.0156 53.6875 40.4766 Q50.4844 35.9375 44.3906 34.1875 ZM19.6719 64.7969 L19.6719 38.9219 L32.0781 38.9219 Q39.2031 38.9219 42.8438 42.2188 Q46.4844 45.5156 46.4844 51.9062 Q46.4844 58.2969 42.8438 61.5469 Q39.2031 64.7969 32.0781 64.7969 L19.6719 64.7969 Z"
           id="glyph40" />
        <glyph
           unicode="-"
           horiz-adv-x="36.083984"
           d="M4.8906 31.3906 L31.2031 31.3906 L31.2031 23.3906 L4.8906 23.3906 L4.8906 31.3906 Z"
           id="glyph42" />
        <glyph
           unicode="m"
           horiz-adv-x="97.41211"
           d="M52 44.1875 Q55.375 50.25 60.0625 53.125 Q64.75 56 71.0938 56 Q79.6406 56 84.2812 50.0234 Q88.9219 44.0469 88.9219 33.0156 L88.9219 0 L79.8906 0 L79.8906 32.7188 Q79.8906 40.5781 77.1016 44.3828 Q74.3125 48.1875 68.6094 48.1875 Q61.625 48.1875 57.5703 43.5547 Q53.5156 38.9219 53.5156 30.9062 L53.5156 0 L44.4844 0 L44.4844 32.7188 Q44.4844 40.625 41.7031 44.4062 Q38.9219 48.1875 33.1094 48.1875 Q26.2188 48.1875 22.1641 43.5312 Q18.1094 38.875 18.1094 30.9062 L18.1094 0 L9.0781 0 L9.0781 54.6875 L18.1094 54.6875 L18.1094 46.1875 Q21.1875 51.2188 25.4844 53.6094 Q29.7812 56 35.6875 56 Q41.6562 56 45.8281 52.9766 Q50 49.9531 52 44.1875 Z"
           id="glyph44" />
        <glyph
           unicode="I"
           horiz-adv-x="29.492188"
           d="M9.8125 72.9062 L19.6719 72.9062 L19.6719 0 L9.8125 0 L9.8125 72.9062 Z"
           id="glyph46" />
        <glyph
           unicode="'"
           horiz-adv-x="27.490234"
           d="M17.9219 72.9062 L17.9219 45.7969 L9.625 45.7969 L9.625 72.9062 L17.9219 72.9062 Z"
           id="glyph48" />
        <glyph
           unicode="E"
           horiz-adv-x="63.183594"
           d="M9.8125 72.9062 L55.9062 72.9062 L55.9062 64.5938 L19.6719 64.5938 L19.6719 43.0156 L54.3906 43.0156 L54.3906 34.7188 L19.6719 34.7188 L19.6719 8.2969 L56.7812 8.2969 L56.7812 0 L9.8125 0 L9.8125 72.9062 Z"
           id="glyph50" />
        <glyph
           unicode=" "
           horiz-adv-x="31.78711"
           d=""
           id="glyph52" />
        <glyph
           unicode="V"
           horiz-adv-x="68.4082"
           d="M28.6094 0 L0.7812 72.9062 L11.0781 72.9062 L34.1875 11.5312 L57.3281 72.9062 L67.5781 72.9062 L39.7969 0 L28.6094 0 Z"
           id="glyph54" />
        <glyph
           unicode="f"
           horiz-adv-x="35.20508"
           d="M37.1094 75.9844 L37.1094 68.5 L28.5156 68.5 Q23.6875 68.5 21.8047 66.5469 Q19.9219 64.5938 19.9219 59.5156 L19.9219 54.6875 L34.7188 54.6875 L34.7188 47.7031 L19.9219 47.7031 L19.9219 0 L10.8906 0 L10.8906 47.7031 L2.2969 47.7031 L2.2969 54.6875 L10.8906 54.6875 L10.8906 58.5 Q10.8906 67.625 15.1406 71.8047 Q19.3906 75.9844 28.6094 75.9844 L37.1094 75.9844 Z"
           id="glyph56" />
        <glyph
           unicode="n"
           horiz-adv-x="63.378906"
           d="M54.8906 33.0156 L54.8906 0 L45.9062 0 L45.9062 32.7188 Q45.9062 40.4844 42.875 44.3359 Q39.8438 48.1875 33.7969 48.1875 Q26.5156 48.1875 22.3125 43.5547 Q18.1094 38.9219 18.1094 30.9062 L18.1094 0 L9.0781 0 L9.0781 54.6875 L18.1094 54.6875 L18.1094 46.1875 Q21.3438 51.125 25.7109 53.5625 Q30.0781 56 35.7969 56 Q45.2188 56 50.0547 50.1719 Q54.8906 44.3438 54.8906 33.0156 Z"
           id="glyph58" />
        <glyph
           unicode="i"
           horiz-adv-x="27.783203"
           d="M9.4219 54.6875 L18.4062 54.6875 L18.4062 0 L9.4219 0 L9.4219 54.6875 ZM9.4219 75.9844 L18.4062 75.9844 L18.4062 64.5938 L9.4219 64.5938 L9.4219 75.9844 Z"
           id="glyph60" />
        <glyph
           unicode="Q"
           horiz-adv-x="78.71094"
           d="M39.4062 66.2188 Q28.6562 66.2188 22.3359 58.2109 Q16.0156 50.2031 16.0156 36.375 Q16.0156 22.6094 22.3359 14.6016 Q28.6562 6.5938 39.4062 6.5938 Q50.1406 6.5938 56.4219 14.6016 Q62.7031 22.6094 62.7031 36.375 Q62.7031 50.2031 56.4219 58.2109 Q50.1406 66.2188 39.4062 66.2188 ZM53.2188 1.3125 L66.2188 -12.8906 L54.2969 -12.8906 L43.5 -1.2188 Q41.8906 -1.3125 41.0391 -1.3672 Q40.1875 -1.4219 39.4062 -1.4219 Q24.0312 -1.4219 14.8203 8.8594 Q5.6094 19.1406 5.6094 36.375 Q5.6094 53.6562 14.8203 63.9375 Q24.0312 74.2188 39.4062 74.2188 Q54.7344 74.2188 63.9141 63.9375 Q73.0938 53.6562 73.0938 36.375 Q73.0938 23.6875 67.9922 14.6484 Q62.8906 5.6094 53.2188 1.3125 Z"
           id="glyph62" />
        <glyph
           unicode="D"
           horiz-adv-x="77.00195"
           d="M19.6719 64.7969 L19.6719 8.1094 L31.5938 8.1094 Q46.6875 8.1094 53.6875 14.9453 Q60.6875 21.7812 60.6875 36.5312 Q60.6875 51.1719 53.6875 57.9844 Q46.6875 64.7969 31.5938 64.7969 L19.6719 64.7969 ZM9.8125 72.9062 L30.0781 72.9062 Q51.2656 72.9062 61.1797 64.0938 Q71.0938 55.2812 71.0938 36.5312 Q71.0938 17.6719 61.1328 8.8359 Q51.1719 0 30.0781 0 L9.8125 0 L9.8125 72.9062 Z"
           id="glyph64" />
      </font>
      <font
         horiz-adv-x="60.009766"
         id="font2"
         horiz-origin-x="0"
         horiz-origin-y="0"
         vert-origin-x="45"
         vert-origin-y="90"
         vert-adv-y="90">
        <font-face
           ascent="92.822266"
           descent="23.583984"
           units-per-em="100"
           style="font-style:normal; font-family:SansSerif; font-weight:bold;"
           id="font-face67" />
        <missing-glyph
           horiz-adv-x="60.009766"
           d="M4.9844 -17.6719 L4.9844 70.5156 L54.9844 70.5156 L54.9844 -17.6719 L4.9844 -17.6719 ZM10.5938 -12.1094 L49.4219 -12.1094 L49.4219 64.8906 L10.5938 64.8906 L10.5938 -12.1094 Z"
           id="missing-glyph69" />
        <glyph
           unicode="e"
           horiz-adv-x="67.822266"
           d="M62.9844 27.4844 L62.9844 22.5156 L22.125 22.5156 Q22.75 16.3594 26.5625 13.2812 Q30.375 10.2031 37.2031 10.2031 Q42.7188 10.2031 48.5078 11.8438 Q54.2969 13.4844 60.4062 16.7969 L60.4062 3.3281 Q54.2031 0.9844 48 -0.2188 Q41.7969 -1.4219 35.5938 -1.4219 Q20.75 -1.4219 12.5234 6.125 Q4.2969 13.6719 4.2969 27.2969 Q4.2969 40.6719 12.375 48.3359 Q20.4531 56 34.625 56 Q47.5156 56 55.25 48.2422 Q62.9844 40.4844 62.9844 27.4844 ZM45.0156 33.2969 Q45.0156 38.2812 42.1094 41.3359 Q39.2031 44.3906 34.5156 44.3906 Q29.4375 44.3906 26.2656 41.5312 Q23.0938 38.6719 22.3125 33.2969 L45.0156 33.2969 Z"
           id="glyph71" />
        <glyph
           unicode="õ"
           horiz-adv-x="68.70117"
           d="M34.4219 43.5 Q28.6094 43.5 25.5625 39.3281 Q22.5156 35.1562 22.5156 27.2969 Q22.5156 19.4375 25.5625 15.2578 Q28.6094 11.0781 34.4219 11.0781 Q40.1406 11.0781 43.1641 15.2578 Q46.1875 19.4375 46.1875 27.2969 Q46.1875 35.1562 43.1641 39.3281 Q40.1406 43.5 34.4219 43.5 ZM34.4219 56 Q48.5312 56 56.4688 48.3828 Q64.4062 40.7656 64.4062 27.2969 Q64.4062 13.8125 56.4688 6.1953 Q48.5312 -1.4219 34.4219 -1.4219 Q20.2656 -1.4219 12.2812 6.1953 Q4.2969 13.8125 4.2969 27.2969 Q4.2969 40.7656 12.2812 48.3828 Q20.2656 56 34.4219 56 ZM34.4531 66.6094 L31.7812 68.4062 Q31.5938 68.5 31.2969 68.7031 Q29.0312 70.2188 27.8281 70.2188 Q26.0781 70.2188 25.1562 68.7031 Q24.2344 67.1875 24.2344 64.3125 L24.2344 63.9219 L17.5156 63.9219 Q17.5156 70.5625 20.0078 74.1719 Q22.5 77.7812 27 77.7812 Q28.7344 77.7812 30.5 77.125 Q32.2656 76.4688 34.25 75 L37.2031 72.9062 Q38.2656 72.1719 39.1641 71.7812 Q40.0625 71.3906 40.7812 71.3906 Q42.5312 71.3906 43.5 72.9531 Q44.4688 74.5156 44.4688 77.2969 L44.4688 77.6875 L51.1875 77.6875 Q51.1875 71.0469 48.6953 67.4297 Q46.2031 63.8125 41.7031 63.8125 Q39.9688 63.8125 38.3438 64.3984 Q36.7188 64.9844 34.4531 66.6094 Z"
           id="glyph73" />
        <glyph
           unicode="ç"
           horiz-adv-x="59.277344"
           d="M52.5938 52.9844 L52.5938 38.7188 Q49.0312 41.1562 45.4375 42.3281 Q41.8438 43.5 37.9844 43.5 Q30.6719 43.5 26.5938 39.2344 Q22.5156 34.9688 22.5156 27.2969 Q22.5156 19.625 26.5938 15.3516 Q30.6719 11.0781 37.9844 11.0781 Q42.0938 11.0781 45.7812 12.3047 Q49.4688 13.5312 52.5938 15.9219 L52.5938 1.6094 Q48.4844 0.0938 44.2656 -0.6641 Q40.0469 -1.4219 35.7969 -1.4219 Q21 -1.4219 12.6484 6.1719 Q4.2969 13.7656 4.2969 27.2969 Q4.2969 40.8281 12.6484 48.4141 Q21 56 35.7969 56 Q40.0938 56 44.2656 55.25 Q48.4375 54.5 52.5938 52.9844 ZM38.3906 0 Q41.2344 -3.0312 42.5703 -5.6172 Q43.9062 -8.2031 43.9062 -10.5 Q43.9062 -15.1406 40.9062 -17.3594 Q37.9062 -19.5781 31.7031 -19.5781 Q29.3594 -19.5781 26.8672 -19.2656 Q24.375 -18.9531 21.8438 -18.3125 L21.7969 -10.8906 Q24.2344 -11.6719 26.2578 -12.0391 Q28.2812 -12.4062 29.9062 -12.4062 Q32.7344 -12.4062 34.3203 -11.2812 Q35.9062 -10.1562 35.9062 -8.2031 Q35.9062 -6.9375 34.8594 -4.9375 Q33.8125 -2.9375 31.6094 0 L38.3906 0 Z"
           id="glyph75" />
        <glyph
           unicode="n"
           horiz-adv-x="71.19141"
           d="M63.375 33.2969 L63.375 0 L45.7969 0 L45.7969 5.4219 L45.7969 25.4844 Q45.7969 32.5625 45.4844 35.25 Q45.1719 37.9375 44.3906 39.2031 Q43.3594 40.9219 41.6016 41.875 Q39.8438 42.8281 37.5938 42.8281 Q32.125 42.8281 29 38.6016 Q25.875 34.375 25.875 26.9062 L25.875 0 L8.4062 0 L8.4062 54.6875 L25.875 54.6875 L25.875 46.6875 Q29.8281 51.4688 34.2734 53.7344 Q38.7188 56 44.0938 56 Q53.5625 56 58.4688 50.1953 Q63.375 44.3906 63.375 33.2969 Z"
           id="glyph77" />
        <glyph
           unicode="c"
           horiz-adv-x="59.277344"
           d="M52.5938 52.9844 L52.5938 38.7188 Q49.0312 41.1562 45.4375 42.3281 Q41.8438 43.5 37.9844 43.5 Q30.6719 43.5 26.5938 39.2344 Q22.5156 34.9688 22.5156 27.2969 Q22.5156 19.625 26.5938 15.3516 Q30.6719 11.0781 37.9844 11.0781 Q42.0938 11.0781 45.7812 12.3047 Q49.4688 13.5312 52.5938 15.9219 L52.5938 1.6094 Q48.4844 0.0938 44.2656 -0.6641 Q40.0469 -1.4219 35.7969 -1.4219 Q21 -1.4219 12.6484 6.1719 Q4.2969 13.7656 4.2969 27.2969 Q4.2969 40.8281 12.6484 48.4141 Q21 56 35.7969 56 Q40.0938 56 44.2656 55.25 Q48.4375 54.5 52.5938 52.9844 Z"
           id="glyph79" />
        <glyph
           unicode="d"
           horiz-adv-x="71.58203"
           d="M45.6094 46.6875 L45.6094 75.9844 L63.1875 75.9844 L63.1875 0 L45.6094 0 L45.6094 7.9062 Q42 3.0781 37.6484 0.8281 Q33.2969 -1.4219 27.5938 -1.4219 Q17.4844 -1.4219 10.9922 6.6172 Q4.5 14.6562 4.5 27.2969 Q4.5 39.9375 10.9922 47.9688 Q17.4844 56 27.5938 56 Q33.25 56 37.625 53.7344 Q42 51.4688 45.6094 46.6875 ZM34.0781 11.2812 Q39.7031 11.2812 42.6562 15.3828 Q45.6094 19.4844 45.6094 27.2969 Q45.6094 35.1094 42.6562 39.2109 Q39.7031 43.3125 34.0781 43.3125 Q28.5156 43.3125 25.5625 39.2109 Q22.6094 35.1094 22.6094 27.2969 Q22.6094 19.4844 25.5625 15.3828 Q28.5156 11.2812 34.0781 11.2812 Z"
           id="glyph81" />
        <glyph
           unicode="l"
           horiz-adv-x="34.277344"
           d="M8.4062 75.9844 L25.875 75.9844 L25.875 0 L8.4062 0 L8.4062 75.9844 Z"
           id="glyph83" />
        <glyph
           unicode="o"
           horiz-adv-x="68.70117"
           d="M34.4219 43.5 Q28.6094 43.5 25.5625 39.3281 Q22.5156 35.1562 22.5156 27.2969 Q22.5156 19.4375 25.5625 15.2578 Q28.6094 11.0781 34.4219 11.0781 Q40.1406 11.0781 43.1641 15.2578 Q46.1875 19.4375 46.1875 27.2969 Q46.1875 35.1562 43.1641 39.3281 Q40.1406 43.5 34.4219 43.5 ZM34.4219 56 Q48.5312 56 56.4688 48.3828 Q64.4062 40.7656 64.4062 27.2969 Q64.4062 13.8125 56.4688 6.1953 Q48.5312 -1.4219 34.4219 -1.4219 Q20.2656 -1.4219 12.2812 6.1953 Q4.2969 13.8125 4.2969 27.2969 Q4.2969 40.7656 12.2812 48.3828 Q20.2656 56 34.4219 56 Z"
           id="glyph85" />
        <glyph
           unicode="s"
           horiz-adv-x="59.521484"
           d="M51.125 52.9844 L51.125 39.7031 Q45.5156 42.0469 40.2891 43.2188 Q35.0625 44.3906 30.4219 44.3906 Q25.4375 44.3906 23.0234 43.1406 Q20.6094 41.8906 20.6094 39.3125 Q20.6094 37.2031 22.4375 36.0859 Q24.2656 34.9688 29 34.4219 L32.0781 33.9844 Q45.5156 32.2812 50.1484 28.375 Q54.7812 24.4688 54.7812 16.1094 Q54.7812 7.375 48.3359 2.9766 Q41.8906 -1.4219 29.1094 -1.4219 Q23.6875 -1.4219 17.8984 -0.5625 Q12.1094 0.2969 6 2 L6 15.2812 Q11.2344 12.75 16.7266 11.4766 Q22.2188 10.2031 27.875 10.2031 Q33.0156 10.2031 35.6016 11.6172 Q38.1875 13.0312 38.1875 15.8281 Q38.1875 18.1719 36.4062 19.3125 Q34.625 20.4531 29.2969 21.0938 L26.2188 21.4844 Q14.5469 22.9531 9.8594 26.9062 Q5.1719 30.8594 5.1719 38.9219 Q5.1719 47.6094 11.1328 51.8047 Q17.0938 56 29.3906 56 Q34.2344 56 39.5547 55.2734 Q44.875 54.5469 51.125 52.9844 Z"
           id="glyph87" />
        <glyph
           unicode="f"
           horiz-adv-x="43.50586"
           d="M44.3906 75.9844 L44.3906 64.5 L34.7188 64.5 Q31 64.5 29.5391 63.1562 Q28.0781 61.8125 28.0781 58.5 L28.0781 54.6875 L43.0156 54.6875 L43.0156 42.1875 L28.0781 42.1875 L28.0781 0 L10.5938 0 L10.5938 42.1875 L1.9062 42.1875 L1.9062 54.6875 L10.5938 54.6875 L10.5938 58.5 Q10.5938 67.4375 15.5781 71.7109 Q20.5625 75.9844 31 75.9844 L44.3906 75.9844 Z"
           id="glyph89" />
        <glyph
           unicode=" "
           horiz-adv-x="34.814453"
           d=""
           id="glyph91" />
        <glyph
           unicode="m"
           horiz-adv-x="104.19922"
           d="M59.0781 45.6094 Q62.4062 50.6875 66.9688 53.3438 Q71.5312 56 77 56 Q86.4219 56 91.3594 50.1953 Q96.2969 44.3906 96.2969 33.2969 L96.2969 0 L78.7188 0 L78.7188 28.5156 Q78.7656 29.1562 78.7891 29.8359 Q78.8125 30.5156 78.8125 31.7812 Q78.8125 37.5938 77.1016 40.2109 Q75.3906 42.8281 71.5781 42.8281 Q66.6094 42.8281 63.8984 38.7266 Q61.1875 34.625 61.0781 26.8594 L61.0781 0 L43.5 0 L43.5 28.5156 Q43.5 37.5938 41.9375 40.2109 Q40.375 42.8281 36.375 42.8281 Q31.3438 42.8281 28.6094 38.7031 Q25.875 34.5781 25.875 26.9062 L25.875 0 L8.2969 0 L8.2969 54.6875 L25.875 54.6875 L25.875 46.6875 Q29.1094 51.3125 33.2812 53.6562 Q37.4531 56 42.4844 56 Q48.1406 56 52.4922 53.2656 Q56.8438 50.5312 59.0781 45.6094 Z"
           id="glyph93" />
        <glyph
           unicode="r"
           horiz-adv-x="49.316406"
           d="M49.0312 39.7969 Q46.7344 40.875 44.4609 41.3828 Q42.1875 41.8906 39.8906 41.8906 Q33.1562 41.8906 29.5156 37.5703 Q25.875 33.25 25.875 25.2031 L25.875 0 L8.4062 0 L8.4062 54.6875 L25.875 54.6875 L25.875 45.7031 Q29.25 51.0781 33.6172 53.5391 Q37.9844 56 44.0938 56 Q44.9688 56 45.9922 55.9297 Q47.0156 55.8594 48.9688 55.6094 L49.0312 39.7969 Z"
           id="glyph95" />
        <glyph
           unicode="g"
           horiz-adv-x="71.58203"
           d="M45.6094 9.2812 Q42 4.5 37.6484 2.25 Q33.2969 0 27.5938 0 Q17.5781 0 11.0391 7.8828 Q4.5 15.7656 4.5 27.9844 Q4.5 40.2344 11.0391 48.0703 Q17.5781 55.9062 27.5938 55.9062 Q33.2969 55.9062 37.6484 53.6641 Q42 51.4219 45.6094 46.5781 L45.6094 54.6875 L63.1875 54.6875 L63.1875 5.5156 Q63.1875 -7.6719 54.8594 -14.625 Q46.5312 -21.5781 30.7188 -21.5781 Q25.5938 -21.5781 20.8047 -20.7969 Q16.0156 -20.0156 11.1875 -18.4062 L11.1875 -4.7812 Q15.7656 -7.4219 20.1641 -8.7188 Q24.5625 -10.0156 29 -10.0156 Q37.5938 -10.0156 41.6016 -6.25 Q45.6094 -2.4844 45.6094 5.5156 L45.6094 9.2812 ZM34.0781 43.3125 Q28.6562 43.3125 25.6328 39.3047 Q22.6094 35.2969 22.6094 27.9844 Q22.6094 20.4531 25.5391 16.5781 Q28.4688 12.7031 34.0781 12.7031 Q39.5469 12.7031 42.5781 16.7031 Q45.6094 20.7031 45.6094 27.9844 Q45.6094 35.2969 42.5781 39.3047 Q39.5469 43.3125 34.0781 43.3125 Z"
           id="glyph97" />
        <glyph
           unicode="a"
           horiz-adv-x="67.48047"
           d="M32.9062 24.6094 Q27.4375 24.6094 24.6797 22.7578 Q21.9219 20.9062 21.9219 17.2812 Q21.9219 13.9688 24.1484 12.0859 Q26.375 10.2031 30.3281 10.2031 Q35.25 10.2031 38.625 13.7422 Q42 17.2812 42 22.6094 L42 24.6094 L32.9062 24.6094 ZM59.625 31.2031 L59.625 0 L42 0 L42 8.1094 Q38.4844 3.125 34.0859 0.8516 Q29.6875 -1.4219 23.3906 -1.4219 Q14.8906 -1.4219 9.5938 3.5391 Q4.2969 8.5 4.2969 16.4062 Q4.2969 26.0312 10.9141 30.5234 Q17.5312 35.0156 31.6875 35.0156 L42 35.0156 L42 36.375 Q42 40.5312 38.7266 42.4609 Q35.4531 44.3906 28.5156 44.3906 Q22.9062 44.3906 18.0703 43.2656 Q13.2344 42.1406 9.0781 39.8906 L9.0781 53.2188 Q14.7031 54.5938 20.3672 55.2969 Q26.0312 56 31.6875 56 Q46.4844 56 53.0547 50.1719 Q59.625 44.3438 59.625 31.2031 Z"
           id="glyph99" />
        <glyph
           unicode="i"
           horiz-adv-x="34.277344"
           d="M8.4062 54.6875 L25.875 54.6875 L25.875 0 L8.4062 0 L8.4062 54.6875 ZM8.4062 75.9844 L25.875 75.9844 L25.875 61.7188 L8.4062 61.7188 L8.4062 75.9844 Z"
           id="glyph101" />
        <glyph
           unicode="D"
           horiz-adv-x="83.00781"
           d="M27.9844 58.6875 L27.9844 14.2031 L34.7188 14.2031 Q46.2344 14.2031 52.3203 19.9219 Q58.4062 25.6406 58.4062 36.5312 Q58.4062 47.3594 52.3516 53.0234 Q46.2969 58.6875 34.7188 58.6875 L27.9844 58.6875 ZM9.1875 72.9062 L29 72.9062 Q45.6094 72.9062 53.7344 70.5391 Q61.8594 68.1719 67.6719 62.5 Q72.7969 57.5625 75.2891 51.1172 Q77.7812 44.6719 77.7812 36.5312 Q77.7812 28.2656 75.2891 21.7969 Q72.7969 15.3281 67.6719 10.4062 Q61.8125 4.7344 53.6094 2.3672 Q45.4062 0 29 0 L9.1875 0 L9.1875 72.9062 Z"
           id="glyph103" />
      </font>
    </defs>
    <g
       style="fill:#ffffff;stroke:#ffffff"
       id="g105" />
    <g
       style="color-interpolation:sRGB;fill:#ffffff;stroke:#ffffff;color-rendering:optimizeSpeed;image-rendering:optimizeSpeed;shape-rendering:crispEdges;text-rendering:optimizeSpeed"
       id="g109">
      <path
         style="stroke:none"
         d="m 351.3558,613 711.2884,0 0,-561 -711.2884,0 z"
         id="path113"
         inkscape:connector-curvature="0" />
    </g>
    <g
       style="color-interpolation:linearRGB;fill:#262626;fill-opacity:0.14900004;stroke:#262626;stroke-width:0.66670001;stroke-linecap:butt;stroke-linejoin:round;stroke-opacity:0.14900004;color-rendering:optimizeQuality;image-rendering:optimizeQuality;text-rendering:geometricPrecision"
       id="g115">
      <line
         y2="52"
         style="fill:none"
         x1="403.96011"
         x2="403.96011"
         y1="613"
         id="line117" />
      <line
         y2="52"
         style="fill:none"
         x1="469.82849"
         x2="469.82849"
         y1="613"
         id="line119" />
      <line
         y2="52"
         style="fill:none"
         x1="535.6969"
         x2="535.6969"
         y1="613"
         id="line121" />
      <line
         y2="52"
         style="fill:none"
         x1="601.56531"
         x2="601.56531"
         y1="613"
         id="line123" />
      <line
         y2="52"
         style="fill:none"
         x1="667.43372"
         x2="667.43372"
         y1="613"
         id="line125" />
      <line
         y2="52"
         style="fill:none"
         x1="733.30212"
         x2="733.30212"
         y1="613"
         id="line127" />
      <line
         y2="52"
         style="fill:none"
         x1="799.17047"
         x2="799.17047"
         y1="613"
         id="line129" />
      <line
         y2="52"
         style="fill:none"
         x1="865.03888"
         x2="865.03888"
         y1="613"
         id="line131" />
      <line
         y2="52"
         style="fill:none"
         x1="930.90729"
         x2="930.90729"
         y1="613"
         id="line133" />
      <line
         y2="52"
         style="fill:none"
         x1="996.77582"
         x2="996.77582"
         y1="613"
         id="line135" />
      <line
         y2="52"
         style="fill:none"
         x1="1062.6442"
         x2="1062.6442"
         y1="613"
         id="line137" />
      <line
         y2="607.86322"
         style="fill:none"
         x1="1062.6442"
         x2="351.3558"
         y1="607.86322"
         id="line139" />
      <line
         y2="541.99481"
         style="fill:none"
         x1="1062.6442"
         x2="351.3558"
         y1="541.99481"
         id="line141" />
      <line
         y2="476.1264"
         style="fill:none"
         x1="1062.6442"
         x2="351.3558"
         y1="476.1264"
         id="line143" />
      <line
         y2="410.258"
         style="fill:none"
         x1="1062.6442"
         x2="351.3558"
         y1="410.258"
         id="line145" />
      <line
         y2="344.38959"
         style="fill:none"
         x1="1062.6442"
         x2="351.3558"
         y1="344.38959"
         id="line147" />
      <line
         y2="278.52121"
         style="fill:none"
         x1="1062.6442"
         x2="351.3558"
         y1="278.52121"
         id="line149" />
      <line
         y2="212.6528"
         style="fill:none"
         x1="1062.6442"
         x2="351.3558"
         y1="212.6528"
         id="line151" />
      <line
         y2="146.78439"
         style="fill:none"
         x1="1062.6442"
         x2="351.3558"
         y1="146.78439"
         id="line153" />
      <line
         y2="80.916"
         style="fill:none"
         x1="1062.6442"
         x2="351.3558"
         y1="80.916"
         id="line155" />
      <line
         x1="351.3558"
         x2="1062.6442"
         y1="613"
         style="fill:none;fill-opacity:1;stroke-linecap:square;stroke-opacity:1"
         y2="613"
         id="line157" />
      <line
         x1="403.96011"
         x2="403.96011"
         y1="613"
         style="fill:none;fill-opacity:1;stroke-linecap:square;stroke-opacity:1"
         y2="605.88708"
         id="line159" />
      <line
         x1="469.82849"
         x2="469.82849"
         y1="613"
         style="fill:none;fill-opacity:1;stroke-linecap:square;stroke-opacity:1"
         y2="605.88708"
         id="line161" />
      <line
         x1="535.6969"
         x2="535.6969"
         y1="613"
         style="fill:none;fill-opacity:1;stroke-linecap:square;stroke-opacity:1"
         y2="605.88708"
         id="line163" />
      <line
         x1="601.56531"
         x2="601.56531"
         y1="613"
         style="fill:none;fill-opacity:1;stroke-linecap:square;stroke-opacity:1"
         y2="605.88708"
         id="line165" />
      <line
         x1="667.43372"
         x2="667.43372"
         y1="613"
         style="fill:none;fill-opacity:1;stroke-linecap:square;stroke-opacity:1"
         y2="605.88708"
         id="line167" />
      <line
         x1="733.30212"
         x2="733.30212"
         y1="613"
         style="fill:none;fill-opacity:1;stroke-linecap:square;stroke-opacity:1"
         y2="605.88708"
         id="line169" />
      <line
         x1="799.17047"
         x2="799.17047"
         y1="613"
         style="fill:none;fill-opacity:1;stroke-linecap:square;stroke-opacity:1"
         y2="605.88708"
         id="line171" />
      <line
         x1="865.03888"
         x2="865.03888"
         y1="613"
         style="fill:none;fill-opacity:1;stroke-linecap:square;stroke-opacity:1"
         y2="605.88708"
         id="line173" />
      <line
         x1="930.90729"
         x2="930.90729"
         y1="613"
         style="fill:none;fill-opacity:1;stroke-linecap:square;stroke-opacity:1"
         y2="605.88708"
         id="line175" />
      <line
         x1="996.77582"
         x2="996.77582"
         y1="613"
         style="fill:none;fill-opacity:1;stroke-linecap:square;stroke-opacity:1"
         y2="605.88708"
         id="line177" />
      <line
         x1="1062.6442"
         x2="1062.6442"
         y1="613"
         style="fill:none;fill-opacity:1;stroke-linecap:square;stroke-opacity:1"
         y2="605.88708"
         id="line179" />
    </g>
    <g
       transform="translate(403.9601,618.3333)"
       style="font-size:13px;font-family:SansSerif;color-interpolation:linearRGB;fill:#262626;stroke:#262626;color-rendering:optimizeQuality;image-rendering:optimizeQuality;text-rendering:geometricPrecision"
       id="g181">
      <text
         x="-4.5"
         xml:space="preserve"
         y="13"
         style="stroke:none"
         id="text183">0</text>
    </g>
    <g
       transform="translate(469.8285,618.3333)"
       style="font-size:13px;font-family:SansSerif;color-interpolation:linearRGB;fill:#262626;stroke:#262626;color-rendering:optimizeQuality;image-rendering:optimizeQuality;text-rendering:geometricPrecision"
       id="g185">
      <text
         x="-10.5"
         xml:space="preserve"
         y="13"
         style="stroke:none"
         id="text187">0.1</text>
    </g>
    <g
       transform="translate(535.6969,618.3333)"
       style="font-size:13px;font-family:SansSerif;color-interpolation:linearRGB;fill:#262626;stroke:#262626;color-rendering:optimizeQuality;image-rendering:optimizeQuality;text-rendering:geometricPrecision"
       id="g189">
      <text
         x="-10.5"
         xml:space="preserve"
         y="13"
         style="stroke:none"
         id="text191">0.2</text>
    </g>
    <g
       transform="translate(601.5653,618.3333)"
       style="font-size:13px;font-family:SansSerif;color-interpolation:linearRGB;fill:#262626;stroke:#262626;color-rendering:optimizeQuality;image-rendering:optimizeQuality;text-rendering:geometricPrecision"
       id="g193">
      <text
         x="-10.5"
         xml:space="preserve"
         y="13"
         style="stroke:none"
         id="text195">0.3</text>
    </g>
    <g
       transform="translate(667.4337,618.3333)"
       style="font-size:13px;font-family:SansSerif;color-interpolation:linearRGB;fill:#262626;stroke:#262626;color-rendering:optimizeQuality;image-rendering:optimizeQuality;text-rendering:geometricPrecision"
       id="g197">
      <text
         x="-10.5"
         xml:space="preserve"
         y="13"
         style="stroke:none"
         id="text199">0.4</text>
    </g>
    <g
       transform="translate(733.3021,618.3333)"
       style="font-size:13px;font-family:SansSerif;color-interpolation:linearRGB;fill:#262626;stroke:#262626;color-rendering:optimizeQuality;image-rendering:optimizeQuality;text-rendering:geometricPrecision"
       id="g201">
      <text
         x="-10.5"
         xml:space="preserve"
         y="13"
         style="stroke:none"
         id="text203">0.5</text>
    </g>
    <g
       transform="translate(799.1705,618.3333)"
       style="font-size:13px;font-family:SansSerif;color-interpolation:linearRGB;fill:#262626;stroke:#262626;color-rendering:optimizeQuality;image-rendering:optimizeQuality;text-rendering:geometricPrecision"
       id="g205">
      <text
         x="-10.5"
         xml:space="preserve"
         y="13"
         style="stroke:none"
         id="text207">0.6</text>
    </g>
    <g
       transform="translate(865.0389,618.3333)"
       style="font-size:13px;font-family:SansSerif;color-interpolation:linearRGB;fill:#262626;stroke:#262626;color-rendering:optimizeQuality;image-rendering:optimizeQuality;text-rendering:geometricPrecision"
       id="g209">
      <text
         x="-10.5"
         xml:space="preserve"
         y="13"
         style="stroke:none"
         id="text211">0.7</text>
    </g>
    <g
       transform="translate(930.9073,618.3333)"
       style="font-size:13px;font-family:SansSerif;color-interpolation:linearRGB;fill:#262626;stroke:#262626;color-rendering:optimizeQuality;image-rendering:optimizeQuality;text-rendering:geometricPrecision"
       id="g213">
      <text
         x="-10.5"
         xml:space="preserve"
         y="13"
         style="stroke:none"
         id="text215">0.8</text>
    </g>
    <g
       transform="translate(996.7758,618.3333)"
       style="font-size:13px;font-family:SansSerif;color-interpolation:linearRGB;fill:#262626;stroke:#262626;color-rendering:optimizeQuality;image-rendering:optimizeQuality;text-rendering:geometricPrecision"
       id="g217">
      <text
         x="-10.5"
         xml:space="preserve"
         y="13"
         style="stroke:none"
         id="text219">0.9</text>
    </g>
    <g
       transform="translate(1062.6442,618.3333)"
       style="font-size:13px;font-family:SansSerif;color-interpolation:linearRGB;fill:#262626;stroke:#262626;color-rendering:optimizeQuality;image-rendering:optimizeQuality;text-rendering:geometricPrecision"
       id="g221">
      <text
         x="-4.5"
         xml:space="preserve"
         y="13"
         style="stroke:none"
         id="text223">1</text>
    </g>
    <g
       transform="translate(707.0004,636.6667)"
       style="font-size:15px;font-family:SansSerif;color-interpolation:linearRGB;fill:#262626;stroke:#262626;color-rendering:optimizeQuality;image-rendering:optimizeQuality;text-rendering:geometricPrecision"
       id="g225">
      <text
         x="-10"
         xml:space="preserve"
         y="14"
         style="stroke:none"
         id="text227">Re</text>
    </g>
    <g
       style="color-interpolation:linearRGB;fill:#262626;stroke:#262626;stroke-width:1.0629921;stroke-linejoin:round;stroke-miterlimit:10;stroke-dasharray:none;color-rendering:optimizeQuality;image-rendering:optimizeQuality;text-rendering:geometricPrecision"
       id="g229">
      <line
         y2="52"
         style="fill:none;stroke-width:1.0629921;stroke-miterlimit:10;stroke-dasharray:none"
         x1="351.3558"
         x2="351.3558"
         y1="613"
         id="line231" />
      <line
         y2="607.86322"
         style="fill:none;stroke-width:1.0629921;stroke-miterlimit:10;stroke-dasharray:none"
         x1="351.3558"
         x2="358.46869"
         y1="607.86322"
         id="line233" />
      <line
         y2="541.99481"
         style="fill:none;stroke-width:1.0629921;stroke-miterlimit:10;stroke-dasharray:none"
         x1="351.3558"
         x2="358.46869"
         y1="541.99481"
         id="line235" />
      <line
         y2="476.1264"
         style="fill:none;stroke-width:1.0629921;stroke-miterlimit:10;stroke-dasharray:none"
         x1="351.3558"
         x2="358.46869"
         y1="476.1264"
         id="line237" />
      <line
         y2="410.258"
         style="fill:none;stroke-width:1.0629921;stroke-miterlimit:10;stroke-dasharray:none"
         x1="351.3558"
         x2="358.46869"
         y1="410.258"
         id="line239" />
      <line
         y2="344.38959"
         style="fill:none;stroke-width:1.0629921;stroke-miterlimit:10;stroke-dasharray:none"
         x1="351.3558"
         x2="358.46869"
         y1="344.38959"
         id="line241" />
      <line
         y2="278.52121"
         style="fill:none;stroke-width:1.0629921;stroke-miterlimit:10;stroke-dasharray:none"
         x1="351.3558"
         x2="358.46869"
         y1="278.52121"
         id="line243" />
      <line
         y2="212.6528"
         style="fill:none;stroke-width:1.0629921;stroke-miterlimit:10;stroke-dasharray:none"
         x1="351.3558"
         x2="358.46869"
         y1="212.6528"
         id="line245" />
      <line
         y2="146.78439"
         style="fill:none;stroke-width:1.0629921;stroke-miterlimit:10;stroke-dasharray:none"
         x1="351.3558"
         x2="358.46869"
         y1="146.78439"
         id="line247" />
      <line
         y2="80.916"
         style="fill:none;stroke-width:1.0629921;stroke-miterlimit:10;stroke-dasharray:none"
         x1="351.3558"
         x2="358.46869"
         y1="80.916"
         id="line249" />
    </g>
    <g
       transform="translate(346.0225,607.8632)"
       style="font-size:13px;font-family:SansSerif;color-interpolation:linearRGB;fill:#262626;stroke:#262626;color-rendering:optimizeQuality;image-rendering:optimizeQuality;text-rendering:geometricPrecision"
       id="g251">
      <text
         x="-26"
         xml:space="preserve"
         y="4.5"
         style="stroke:none"
         id="text253">-0.1</text>
    </g>
    <g
       transform="translate(346.0225,541.9948)"
       style="font-size:13px;font-family:SansSerif;color-interpolation:linearRGB;fill:#262626;stroke:#262626;color-rendering:optimizeQuality;image-rendering:optimizeQuality;text-rendering:geometricPrecision"
       id="g255">
      <text
         x="-9"
         xml:space="preserve"
         y="4.5"
         style="stroke:none"
         id="text257">0</text>
    </g>
    <g
       transform="translate(346.0225,476.1264)"
       style="font-size:13px;font-family:SansSerif;color-interpolation:linearRGB;fill:#262626;stroke:#262626;color-rendering:optimizeQuality;image-rendering:optimizeQuality;text-rendering:geometricPrecision"
       id="g259">
      <text
         x="-21"
         xml:space="preserve"
         y="4.5"
         style="stroke:none"
         id="text261">0.1</text>
    </g>
    <g
       transform="translate(346.0225,410.258)"
       style="font-size:13px;font-family:SansSerif;color-interpolation:linearRGB;fill:#262626;stroke:#262626;color-rendering:optimizeQuality;image-rendering:optimizeQuality;text-rendering:geometricPrecision"
       id="g263">
      <text
         x="-21"
         xml:space="preserve"
         y="4.5"
         style="stroke:none"
         id="text265">0.2</text>
    </g>
    <g
       transform="translate(346.0225,344.3896)"
       style="font-size:13px;font-family:SansSerif;color-interpolation:linearRGB;fill:#262626;stroke:#262626;color-rendering:optimizeQuality;image-rendering:optimizeQuality;text-rendering:geometricPrecision"
       id="g267">
      <text
         x="-21"
         xml:space="preserve"
         y="4.5"
         style="stroke:none"
         id="text269">0.3</text>
    </g>
    <g
       transform="translate(346.0225,278.5212)"
       style="font-size:13px;font-family:SansSerif;color-interpolation:linearRGB;fill:#262626;stroke:#262626;color-rendering:optimizeQuality;image-rendering:optimizeQuality;text-rendering:geometricPrecision"
       id="g271">
      <text
         x="-21"
         xml:space="preserve"
         y="4.5"
         style="stroke:none"
         id="text273">0.4</text>
    </g>
    <g
       transform="translate(346.0225,212.6528)"
       style="font-size:13px;font-family:SansSerif;color-interpolation:linearRGB;fill:#262626;stroke:#262626;color-rendering:optimizeQuality;image-rendering:optimizeQuality;text-rendering:geometricPrecision"
       id="g275">
      <text
         x="-21"
         xml:space="preserve"
         y="4.5"
         style="stroke:none"
         id="text277">0.5</text>
    </g>
    <g
       transform="translate(346.0225,146.7844)"
       style="font-size:13px;font-family:SansSerif;color-interpolation:linearRGB;fill:#262626;stroke:#262626;color-rendering:optimizeQuality;image-rendering:optimizeQuality;text-rendering:geometricPrecision"
       id="g279">
      <text
         x="-21"
         xml:space="preserve"
         y="4.5"
         style="stroke:none"
         id="text281">0.6</text>
    </g>
    <g
       transform="translate(346.0225,80.916)"
       style="font-size:13px;font-family:SansSerif;color-interpolation:linearRGB;fill:#262626;stroke:#262626;color-rendering:optimizeQuality;image-rendering:optimizeQuality;text-rendering:geometricPrecision"
       id="g283">
      <text
         x="-21"
         xml:space="preserve"
         y="4.5"
         style="stroke:none"
         id="text285">0.7</text>
    </g>
    <g
       transform="matrix(0,-1,1,0,316.0225,332.4998)"
       style="font-size:15px;font-family:SansSerif;color-interpolation:linearRGB;fill:#262626;stroke:#262626;color-rendering:optimizeQuality;image-rendering:optimizeQuality;text-rendering:geometricPrecision"
       id="g287">
      <text
         x="-10"
         xml:space="preserve"
         y="-4"
         style="stroke:none"
         id="text289">Im</text>
    </g>
    <g
       transform="translate(707.0007,49.25)"
       style="font-weight:bold;font-size:15px;font-family:SansSerif;color-interpolation:linearRGB;color-rendering:optimizeQuality;image-rendering:optimizeQuality;text-rendering:geometricPrecision"
       id="g291">
      <text
         x="-170"
         xml:space="preserve"
         y="-4"
         style="stroke:none"
         id="text293">Diagrama fasorial das condições iniciais</text>
    </g>
    <g
       style="color-interpolation:linearRGB;fill:#0000ff;stroke:#0000ff;stroke-width:1.77165354;stroke-linecap:butt;stroke-linejoin:round;color-rendering:optimizeQuality;image-rendering:optimizeQuality;text-rendering:geometricPrecision;stroke-miterlimit:10;stroke-dasharray:none"
       id="g295">
      <line
         y2="318.04221"
         style="fill:none;stroke-width:1.77165354;stroke-miterlimit:10;stroke-dasharray:none"
         x1="403.96011"
         x2="919.06787"
         y1="541.99481"
         id="line297" />
    </g>
    <g
       style="color-interpolation:sRGB;fill:#0000ff;stroke:#0000ff;color-rendering:optimizeSpeed;image-rendering:optimizeSpeed;shape-rendering:crispEdges;text-rendering:optimizeSpeed"
       id="g299">
      <path
         style="stroke:none"
         d="m 919.0679,318.0422 -4.0313,4.8151 -2.2395,-5.1511 z"
         id="path301"
         inkscape:connector-curvature="0" />
    </g>
    <g
       style="color-interpolation:linearRGB;fill:#0000ff;stroke:#0000ff;stroke-width:0.66670001;color-rendering:optimizeQuality;image-rendering:optimizeQuality;text-rendering:geometricPrecision"
       id="g303">
      <path
         d="m 919.0679,318.0422 -4.0313,4.8151 -2.2395,-5.1511 6.2708,0.336"
         style="fill:none;fill-rule:evenodd"
         id="path305"
         inkscape:connector-curvature="0" />
    </g>
    <g
       transform="matrix(1.8694144,0,0,1.8694144,919.0679,314.12984)"
       style="font-size:13px;font-family:SansSerif;color-interpolation:linearRGB;fill:#0000ff;stroke:#0000ff;color-rendering:optimizeQuality;image-rendering:optimizeQuality;text-rendering:geometricPrecision"
       id="g307">
      <text
         x="0"
         xml:space="preserve"
         y="4.5"
         style="stroke:none"
         id="text309"> E'</text>
    </g>
    <g
       style="color-interpolation:linearRGB;fill:#ff0000;stroke:#ff0000;stroke-width:1.77165354;stroke-linecap:butt;stroke-linejoin:round;color-rendering:optimizeQuality;image-rendering:optimizeQuality;text-rendering:geometricPrecision;stroke-miterlimit:10;stroke-dasharray:none"
       id="g311">
      <line
         y2="476.1264"
         style="fill:none;stroke-width:1.77165354;stroke-miterlimit:10;stroke-dasharray:none"
         x1="403.96011"
         x2="1020.4159"
         y1="541.99481"
         id="line313" />
    </g>
    <g
       style="color-interpolation:sRGB;fill:#ff0000;stroke:#ff0000;color-rendering:optimizeSpeed;image-rendering:optimizeSpeed;shape-rendering:crispEdges;text-rendering:optimizeSpeed"
       id="g315">
      <path
         style="stroke:none"
         d="m 1020.4159,476.1264 -5.8353,3.741 -0.6587,-6.1646 z"
         id="path317"
         inkscape:connector-curvature="0" />
    </g>
    <g
       style="color-interpolation:linearRGB;fill:#ff0000;stroke:#ff0000;stroke-width:0.66670001;color-rendering:optimizeQuality;image-rendering:optimizeQuality;text-rendering:geometricPrecision"
       id="g319">
      <path
         d="m 1020.4159,476.1264 -5.8353,3.741 -0.6587,-6.1646 6.494,2.4236"
         style="fill:none;fill-rule:evenodd"
         id="path321"
         inkscape:connector-curvature="0" />
    </g>
    <g
       transform="matrix(1.8694144,0,0,1.8694144,1020.4159,472.21404)"
       style="font-size:13px;font-family:SansSerif;color-interpolation:linearRGB;fill:#ff0000;stroke:#ff0000;color-rendering:optimizeQuality;image-rendering:optimizeQuality;text-rendering:geometricPrecision"
       id="g323">
      <text
         x="0"
         xml:space="preserve"
         y="4.5"
         style="stroke:none"
         id="text325"> V</text>
    </g>
    <g
       style="color-interpolation:linearRGB;fill:#ff00ff;stroke:#ff00ff;stroke-width:1.77165354;stroke-linecap:butt;stroke-linejoin:round;color-rendering:optimizeQuality;image-rendering:optimizeQuality;text-rendering:geometricPrecision;stroke-miterlimit:10;stroke-dasharray:none"
       id="g327">
      <line
         y2="119.7118"
         style="fill:none;stroke-width:1.77165354;stroke-miterlimit:10;stroke-dasharray:none"
         x1="403.96011"
         x2="1062.6442"
         y1="541.99481"
         id="line329" />
    </g>
    <g
       style="color-interpolation:sRGB;fill:#ff00ff;stroke:#ff00ff;color-rendering:optimizeSpeed;image-rendering:optimizeSpeed;shape-rendering:crispEdges;text-rendering:optimizeSpeed"
       id="g331">
      <path
         style="stroke:none"
         d="m 1062.6442,119.7118 -4.4755,7.5162 -4.2228,-6.5868 z"
         id="path333"
         inkscape:connector-curvature="0" />
    </g>
    <g
       style="color-interpolation:linearRGB;fill:#ff00ff;stroke:#ff00ff;stroke-width:0.66670001;color-rendering:optimizeQuality;image-rendering:optimizeQuality;text-rendering:geometricPrecision"
       id="g335">
      <path
         d="m 1062.6442,119.7118 -4.4755,7.5162 -4.2228,-6.5868 8.6983,-0.9294"
         style="fill:none;fill-rule:evenodd"
         id="path337"
         inkscape:connector-curvature="0" />
    </g>
    <g
       transform="matrix(1.8694144,0,0,1.8694144,1062.6442,115.79944)"
       style="font-size:13px;font-family:SansSerif;color-interpolation:linearRGB;fill:#ff00ff;stroke:#ff00ff;color-rendering:optimizeQuality;image-rendering:optimizeQuality;text-rendering:geometricPrecision"
       id="g339">
      <text
         x="0"
         xml:space="preserve"
         y="4.5"
         style="stroke:none"
         id="text341"> I</text>
    </g>
    <g
       style="color-interpolation:linearRGB;fill:#00ff00;stroke:#00ff00;stroke-width:1.77165354;stroke-linecap:butt;stroke-linejoin:round;color-rendering:optimizeQuality;image-rendering:optimizeQuality;text-rendering:geometricPrecision;stroke-miterlimit:10;stroke-dasharray:none"
       id="g343">
      <line
         y2="541.99481"
         style="fill:none;stroke-width:1.77165354;stroke-miterlimit:10;stroke-dasharray:none"
         x1="403.96011"
         x2="1062.6442"
         y1="541.99481"
         id="line345" />
    </g>
    <g
       style="color-interpolation:sRGB;fill:#00ff00;stroke:#00ff00;color-rendering:optimizeSpeed;image-rendering:optimizeSpeed;shape-rendering:crispEdges;text-rendering:optimizeSpeed"
       id="g347">
      <path
         style="stroke:none"
         d="m 1062.6442,541.9948 -6.5868,3.2935 0,-6.5869 z"
         id="path349"
         inkscape:connector-curvature="0" />
    </g>
    <g
       style="color-interpolation:linearRGB;fill:#00ff00;stroke:#00ff00;stroke-width:0.66670001;color-rendering:optimizeQuality;image-rendering:optimizeQuality;text-rendering:geometricPrecision"
       id="g351">
      <path
         d="m 1062.6442,541.9948 -6.5868,3.2935 0,-6.5869 6.5868,3.2934"
         style="fill:none;fill-rule:evenodd"
         id="path353"
         inkscape:connector-curvature="0" />
    </g>
    <g
       transform="matrix(1.8315153,0,0,1.8315153,1027.9487,569.0549)"
       style="font-size:13px;font-family:SansSerif;color-interpolation:linearRGB;fill:#00ff00;stroke:#00ff00;color-rendering:optimizeQuality;image-rendering:optimizeQuality;text-rendering:geometricPrecision"
       id="g355">
      <text
         x="0"
         xml:space="preserve"
         y="0"
         style="stroke:none"
         id="text357"> E</text>
    </g>
    <g
       transform="matrix(1.831787,0,0,1.831787,1051.758,580.04399)"
       style="font-size:11px;font-family:SansSerif;color-interpolation:linearRGB;fill:#00ff00;stroke:#00ff00;color-rendering:optimizeQuality;image-rendering:optimizeQuality;text-rendering:geometricPrecision"
       id="g359">
      <text
         x="0"
         xml:space="preserve"
         y="0"
         style="stroke:none"
         id="text361">inf</text>
    </g>
    <g
       style="color-interpolation:linearRGB;stroke-width:1.77165354;stroke-linecap:butt;stroke-linejoin:round;color-rendering:optimizeQuality;image-rendering:optimizeQuality;text-rendering:geometricPrecision;stroke-miterlimit:10;stroke-dasharray:none"
       id="g363">
      <line
         y2="489.46939"
         style="fill:none;stroke-width:1.77165354;stroke-miterlimit:10;stroke-dasharray:none;marker-end:url(#Arrow2Mend)"
         x1="403.96011"
         x2="524.77258"
         y1="541.99481"
         id="line365" />
    </g>
    <g
       style="color-interpolation:sRGB;color-rendering:optimizeSpeed;image-rendering:optimizeSpeed;shape-rendering:crispEdges;text-rendering:optimizeSpeed"
       id="g367">
      <path
         style="stroke:none"
         d="m 524.7726,489.4694 -0.9455,1.1293 -0.5252,-1.2081 z"
         id="path369"
         inkscape:connector-curvature="0" />
    </g>
    <g
       style="color-interpolation:linearRGB;stroke-width:0.66670001;color-rendering:optimizeQuality;image-rendering:optimizeQuality;text-rendering:geometricPrecision"
       id="g371">
      <path
         d="m 524.7726,489.4694 -0.9455,1.1293 -0.5252,-1.2081 1.4707,0.0788"
         style="fill:none;fill-rule:evenodd"
         id="path373"
         inkscape:connector-curvature="0" />
    </g>
    <g
       transform="matrix(1.5644819,0,0,1.5644819,512.73416,501.56244)"
       style="font-size:13px;font-family:SansSerif;color-interpolation:linearRGB;color-rendering:optimizeQuality;image-rendering:optimizeQuality;text-rendering:geometricPrecision"
       id="g375">
      <text
         x="0"
         xml:space="preserve"
         y="4.5"
         style="stroke:none"
         id="text377"> Q</text>
    </g>
    <g
       style="color-interpolation:linearRGB;stroke-width:1.77165354;stroke-linecap:butt;stroke-linejoin:round;color-rendering:optimizeQuality;image-rendering:optimizeQuality;text-rendering:geometricPrecision;stroke-miterlimit:10;stroke-dasharray:none"
       id="g379">
      <line
         y2="421.18231"
         style="fill:none;stroke-width:1.77165354;stroke-miterlimit:10;stroke-dasharray:none;marker-end:url(#marker4621)"
         x1="403.96011"
         x2="351.4346"
         y1="541.99481"
         id="line381" />
    </g>
    <g
       style="color-interpolation:sRGB;color-rendering:optimizeSpeed;image-rendering:optimizeSpeed;shape-rendering:crispEdges;text-rendering:optimizeSpeed"
       id="g383">
      <path
         style="stroke:none"
         d="m 351.4346,421.1823 1.1294,0.9455 -1.2082,0.5252 z"
         id="path385"
         inkscape:connector-curvature="0" />
    </g>
    <g
       style="color-interpolation:linearRGB;stroke-width:0.66670001;color-rendering:optimizeQuality;image-rendering:optimizeQuality;text-rendering:geometricPrecision"
       id="g387">
      <path
         d="m 351.4346,421.1823 1.1294,0.9455 -1.2082,0.5252 0.0788,-1.4707"
         style="fill:none;fill-rule:evenodd"
         id="path389"
         inkscape:connector-curvature="0" />
    </g>
    <g
       transform="matrix(1.8694144,0,0,1.8694144,351.4346,417.26994)"
       style="font-size:13px;font-family:SansSerif;color-interpolation:linearRGB;color-rendering:optimizeQuality;image-rendering:optimizeQuality;text-rendering:geometricPrecision"
       id="g391">
      <text
         x="0"
         xml:space="preserve"
         y="4.5"
         style="stroke:none"
         id="text393"> D</text>
    </g>
  </g>
</svg>
