<?xml version="1.0" encoding="UTF-8" standalone="no"?>
<svg
   xmlns:dc="http://purl.org/dc/elements/1.1/"
   xmlns:cc="http://creativecommons.org/ns#"
   xmlns:rdf="http://www.w3.org/1999/02/22-rdf-syntax-ns#"
   xmlns:svg="http://www.w3.org/2000/svg"
   xmlns="http://www.w3.org/2000/svg"
   xmlns:sodipodi="http://sodipodi.sourceforge.net/DTD/sodipodi-0.dtd"
   xmlns:inkscape="http://www.inkscape.org/namespaces/inkscape"
   style="font-style:normal;font-weight:normal;font-size:12px;font-family:Dialog;color-interpolation:auto;fill:#000000;fill-opacity:1;stroke:#000000;stroke-width:1;stroke-linecap:square;stroke-linejoin:miter;stroke-miterlimit:10;stroke-dasharray:none;stroke-dashoffset:0;stroke-opacity:1;color-rendering:auto;image-rendering:auto;shape-rendering:auto;text-rendering:auto"
   width="301.56165mm"
   height="250.34756mm"
   version="1.1"
   id="svg316"
   sodipodi:docname="regiaoDoSistemaEmEstudo.svg"
   inkscape:version="0.92.1 unknown">
  <metadata
     id="metadata320">
    <rdf:RDF>
      <cc:Work
         rdf:about="">
        <dc:format>image/svg+xml</dc:format>
        <dc:type
           rdf:resource="http://purl.org/dc/dcmitype/StillImage" />
        <dc:title />
      </cc:Work>
    </rdf:RDF>
  </metadata>
  <sodipodi:namedview
     pagecolor="#ffffff"
     bordercolor="#666666"
     borderopacity="1"
     objecttolerance="10"
     gridtolerance="10"
     guidetolerance="10"
     inkscape:pageopacity="0"
     inkscape:pageshadow="2"
     inkscape:window-width="1920"
     inkscape:window-height="1056"
     id="namedview318"
     showgrid="false"
     inkscape:document-units="mm"
     units="mm"
     fit-margin-top="0"
     fit-margin-left="0"
     fit-margin-right="0"
     fit-margin-bottom="0"
     inkscape:zoom="0.61041667"
     inkscape:cx="341.54696"
     inkscape:cy="467.59046"
     inkscape:window-x="2944"
     inkscape:window-y="224"
     inkscape:window-maximized="1"
     inkscape:current-layer="g314" />
  <!--Generated by the Batik Graphics2D SVG Generator-->
  <defs
     id="genericDefs">
    <marker
       inkscape:stockid="Arrow2Mend"
       orient="auto"
       refY="0"
       refX="0"
       id="marker5137"
       style="overflow:visible"
       inkscape:isstock="true">
      <path
         id="path5135"
         style="fill:#262626;fill-opacity:1;fill-rule:evenodd;stroke:#262626;stroke-width:0.625;stroke-linejoin:round;stroke-opacity:1"
         d="M 8.7185878,4.0337352 -2.2072895,0.01601326 8.7185884,-4.0017078 c -1.7454984,2.3720609 -1.7354408,5.6174519 -6e-7,8.035443 z"
         transform="scale(-0.6)"
         inkscape:connector-curvature="0" />
    </marker>
    <marker
       inkscape:stockid="Arrow2Mend"
       orient="auto"
       refY="0"
       refX="0"
       id="marker5115"
       style="overflow:visible"
       inkscape:isstock="true">
      <path
         id="path5113"
         style="fill-rule:evenodd;stroke-width:0.625;stroke-linejoin:round"
         d="M 8.7185878,4.0337352 -2.2072895,0.01601326 8.7185884,-4.0017078 c -1.7454984,2.3720609 -1.7354408,5.6174519 -6e-7,8.035443 z"
         transform="scale(-0.6)"
         inkscape:connector-curvature="0" />
    </marker>
    <marker
       inkscape:stockid="Arrow2Mend"
       orient="auto"
       refY="0"
       refX="0"
       id="Arrow2Mend"
       style="overflow:visible"
       inkscape:isstock="true">
      <path
         id="path4832"
         style="fill:#262626;fill-opacity:1;fill-rule:evenodd;stroke:#262626;stroke-width:0.625;stroke-linejoin:round;stroke-opacity:1"
         d="M 8.7185878,4.0337352 -2.2072895,0.01601326 8.7185884,-4.0017078 c -1.7454984,2.3720609 -1.7354408,5.6174519 -6e-7,8.035443 z"
         transform="scale(-0.6)"
         inkscape:connector-curvature="0" />
    </marker>
    <marker
       inkscape:stockid="Arrow1Mend"
       orient="auto"
       refY="0"
       refX="0"
       id="Arrow1Mend"
       style="overflow:visible"
       inkscape:isstock="true">
      <path
         id="path4814"
         d="M 0,0 5,-5 -12.5,0 5,5 Z"
         style="fill:#262626;fill-opacity:1;fill-rule:evenodd;stroke:#262626;stroke-width:1.00000003pt;stroke-opacity:1"
         transform="matrix(-0.4,0,0,-0.4,-4,0)"
         inkscape:connector-curvature="0" />
    </marker>
  </defs>
  <g
     id="g314"
     transform="translate(-421.44605,38.607624)">
    <defs
       id="defs1">
      <clipPath
         clipPathUnits="userSpaceOnUse"
         id="clipPath1">
        <path
           d="M 0,0 H 1920 V 958 H 0 Z"
           id="path3"
           inkscape:connector-curvature="0" />
      </clipPath>
      <font
         horiz-adv-x="100"
         id="font1"
         horiz-origin-x="0"
         horiz-origin-y="0"
         vert-origin-x="45"
         vert-origin-y="90"
         vert-adv-y="90">
        <font-face
           ascent="87.98828"
           descent="12.011719"
           units-per-em="100"
           style="font-style:normal; font-family:IPAPGothic; font-weight:normal;"
           id="font-face6" />
        <missing-glyph
           horiz-adv-x="100.0"
           d="M89.9844 -10.0156 L10.0156 -10.0156 L10.0156 85.9844 L89.9844 85.9844 L89.9844 -10.0156 ZM81.5 80.8125 L18.6094 80.8125 L50.0938 42.0938 L81.5 80.8125 ZM84.8125 -0.8281 L84.8125 76.6094 L53.4219 37.8906 L84.8125 -0.8281 ZM46.6875 37.8906 L15.1875 76.8125 L15.1875 -0.9219 L46.6875 37.8906 ZM81.3906 -4.8281 L50.0938 33.7969 L18.7031 -4.8281 L81.3906 -4.8281 Z"
           id="missing-glyph8" />
        <glyph
           unicode="0"
           horiz-adv-x="62.98828"
           d="M31.8438 73.8281 Q45.0156 73.8281 52.0938 61.625 Q57.7188 51.9531 57.7188 36.625 Q57.7188 21.4375 52.0938 11.5781 Q45.125 -0.4844 31.5 -0.4844 Q17.9219 -0.4844 10.9375 11.5781 Q5.3281 21.4375 5.3281 36.7188 Q5.3281 58.0156 15.625 67.7188 Q22.1719 73.8281 31.8438 73.8281 ZM31.5 66.6094 Q23.6875 66.6094 19.1875 58.6875 Q14.5938 50.6875 14.5938 36.5781 Q14.5938 22.75 19.0938 14.7969 Q23.6406 6.9844 31.5 6.9844 Q40.9219 6.9844 45.4531 17.9688 Q48.4375 25.3438 48.4375 37.1094 Q48.4375 50.8281 43.8438 58.6875 Q39.2031 66.6094 31.5 66.6094 Z"
           id="glyph10" />
        <glyph
           unicode="8"
           horiz-adv-x="62.98828"
           d="M39.7031 37.8906 Q57.8125 31.7344 57.8125 18.7031 Q57.8125 8.4531 48.4375 3.0781 Q41.6094 -0.875 31.5 -0.875 Q21.3438 -0.875 14.5 3.0781 Q5.4219 8.2969 5.4219 18.4062 Q5.4219 31.0625 22.0156 37.2031 L22.0156 37.5 Q7.5156 42.7188 7.5156 54.7812 Q7.5156 64.0625 15.3281 69.625 Q21.9688 74.3125 31.5469 74.3125 Q42.2344 74.3125 48.9219 68.7969 Q55.5156 63.5781 55.5156 55.7188 Q55.5156 42.2812 39.7031 38.1875 L39.7031 37.8906 ZM31.6406 41.0156 Q46.8281 44.625 46.8281 55.125 Q46.8281 61.1875 41.7969 64.8438 Q37.7031 67.9219 31.5 67.9219 Q25.0938 67.9219 20.7969 64.5 Q16.4062 60.8906 16.4062 54.9844 Q16.4062 49.1719 21.1406 45.7031 Q23.3438 43.8906 26.9062 42.4844 Q30.6094 40.9688 31.5 40.9688 Q31.5469 40.9688 31.6406 41.0156 ZM30.9062 34.4688 Q14.4062 30.125 14.4062 19 Q14.4062 12.1094 20.5156 8.6875 Q25.0938 6.1094 31.3906 6.1094 Q40.2344 6.1094 45.0156 10.8906 Q48.5312 14.4062 48.5312 19.4844 Q48.5312 24.8594 43.6094 28.8594 Q40.7656 31.1094 36.7188 32.7656 Q32.375 34.4688 31.1094 34.4688 Q31 34.4688 30.9062 34.4688 Z"
           id="glyph12" />
        <glyph
           unicode="-"
           horiz-adv-x="35.791016"
           d="M30.7656 26.6094 L4.9844 26.6094 L4.9844 34.4219 L30.7656 34.4219 L30.7656 26.6094 Z"
           id="glyph14" />
        <glyph
           unicode="6"
           horiz-adv-x="62.98828"
           d="M16.5 36.375 Q23.5781 46.5781 34.9062 46.5781 Q45.4062 46.5781 51.8125 39.2656 Q57.4219 32.9062 57.4219 23.7812 Q57.4219 13.8125 51.125 6.7812 Q44.5781 -0.4844 34.0312 -0.4844 Q21.4844 -0.4844 14.4062 9.0781 Q7.5156 18.4062 7.5156 34.8125 Q7.5156 53.5156 15.8281 64.2031 Q23.3438 73.8281 35.5 73.8281 Q49.8594 73.8281 56.3906 62.8906 L49.2188 58.9844 Q45.2188 66.6094 35.9375 66.6094 Q17.4844 66.6094 16.1094 36.375 L16.5 36.375 ZM33.4531 39.7969 Q26.3125 39.7969 21.625 34.4688 Q17.4375 29.6875 17.4375 24.0781 Q17.4375 18.0625 21.1406 13.1875 Q26.125 6.6875 33.7344 6.6875 Q41.7031 6.6875 45.9531 13.1875 Q48.8281 17.625 48.8281 23.4844 Q48.8281 30.375 45.0156 34.8125 Q40.625 39.7969 33.4531 39.7969 Z"
           id="glyph16" />
        <glyph
           unicode="4"
           horiz-adv-x="62.98828"
           d="M59.5781 18.1094 L47.75 18.1094 L47.75 0.9844 L39.75 0.9844 L39.75 18.1094 L3.0781 18.1094 L3.0781 26.125 L38.3281 73.0938 L47.75 73.0938 L47.75 25.5312 L59.5781 25.5312 L59.5781 18.1094 ZM40.2344 64.2031 L39.9375 64.2031 Q35.5938 57.1719 31.25 51.3125 L11.8594 25.5312 L39.75 25.5312 L39.75 49.125 Q39.75 54.25 40.2344 64.2031 Z"
           id="glyph18" />
        <glyph
           unicode="2"
           horiz-adv-x="62.98828"
           d="M57.1719 0.9844 L6.9844 0.9844 L6.9844 9.2812 Q12.8906 23.0469 29.5938 34.4219 L32.375 36.2812 Q40.9219 42.1406 43.6094 45.4062 Q46.6875 49.2188 46.6875 53.8125 Q46.6875 58.8906 43.0625 62.5 Q39.0625 66.5 32.5625 66.5 Q19.5312 66.5 15.4844 52 L7.7656 54.7812 Q13.3281 73.8281 33.0625 73.8281 Q43.8438 73.8281 50.25 67.4375 Q55.8594 61.6719 55.8594 53.5156 Q55.8594 47.4688 52.25 42.5312 Q48.9219 37.75 36.9688 30.2812 L34.8594 29 Q19.625 19.5781 15.2812 8.8906 L57.1719 8.8906 L57.1719 0.9844 Z"
           id="glyph20" />
      </font>
    </defs>
    <g
       style="color-interpolation:linearRGB;fill:#1a1a1a;fill-opacity:0.25100002;stroke:#1a1a1a;stroke-width:0.65969998;stroke-linecap:butt;stroke-linejoin:bevel;stroke-miterlimit:1;stroke-dasharray:1, 3;stroke-opacity:0.25100002;color-rendering:optimizeQuality;image-rendering:optimizeQuality;text-rendering:geometricPrecision"
       id="g86">
      <line
         y2="72"
         style="fill:none"
         x1="509.3342"
         x2="509.3342"
         y1="853"
         id="line34" />
      <line
         y2="72"
         style="fill:none"
         x1="537.45538"
         x2="537.45538"
         y1="853"
         id="line36" />
      <line
         y2="72"
         style="fill:none"
         x1="593.69769"
         x2="593.69769"
         y1="853"
         id="line38" />
      <line
         y2="72"
         style="fill:none"
         x1="621.81879"
         x2="621.81879"
         y1="853"
         id="line40" />
      <line
         y2="72"
         style="fill:none"
         x1="649.93988"
         x2="649.93988"
         y1="853"
         id="line42" />
      <line
         y2="72"
         style="fill:none"
         x1="706.18231"
         x2="706.18231"
         y1="853"
         id="line44" />
      <line
         y2="72"
         style="fill:none"
         x1="734.30341"
         x2="734.30341"
         y1="853"
         id="line46" />
      <line
         y2="72"
         style="fill:none"
         x1="762.42462"
         x2="762.42462"
         y1="853"
         id="line48" />
      <line
         y2="72"
         style="fill:none"
         x1="818.66681"
         x2="818.66681"
         y1="853"
         id="line50" />
      <line
         y2="72"
         style="fill:none"
         x1="846.78802"
         x2="846.78802"
         y1="853"
         id="line52" />
      <line
         y2="72"
         style="fill:none"
         x1="874.90912"
         x2="874.90912"
         y1="853"
         id="line54" />
      <line
         y2="72"
         style="fill:none"
         x1="931.15143"
         x2="931.15143"
         y1="853"
         id="line56" />
      <line
         y2="72"
         style="fill:none"
         x1="959.27258"
         x2="959.27258"
         y1="853"
         id="line58" />
      <line
         y2="72"
         style="fill:none"
         x1="987.39368"
         x2="987.39368"
         y1="853"
         id="line60" />
      <line
         y2="72"
         style="fill:none"
         x1="1043.636"
         x2="1043.636"
         y1="853"
         id="line62" />
      <line
         y2="72"
         style="fill:none"
         x1="1071.7572"
         x2="1071.7572"
         y1="853"
         id="line64" />
      <line
         y2="72"
         style="fill:none"
         x1="1099.8783"
         x2="1099.8783"
         y1="853"
         id="line66" />
      <line
         y2="72"
         style="fill:none"
         x1="1156.1206"
         x2="1156.1206"
         y1="853"
         id="line68" />
      <line
         y2="72"
         style="fill:none"
         x1="1184.2417"
         x2="1184.2417"
         y1="853"
         id="line70" />
      <line
         y2="72"
         style="fill:none"
         x1="1212.3629"
         x2="1212.3629"
         y1="853"
         id="line72" />
      <line
         y2="72"
         style="fill:none"
         x1="1268.6051"
         x2="1268.6051"
         y1="853"
         id="line74" />
      <line
         y2="72"
         style="fill:none"
         x1="1296.7263"
         x2="1296.7263"
         y1="853"
         id="line76" />
      <line
         y2="72"
         style="fill:none"
         x1="1324.8474"
         x2="1324.8474"
         y1="853"
         id="line78" />
      <line
         y2="72"
         style="fill:none"
         x1="1381.0897"
         x2="1381.0897"
         y1="853"
         id="line80" />
      <line
         y2="72"
         style="fill:none"
         x1="1409.2109"
         x2="1409.2109"
         y1="853"
         id="line82" />
      <line
         y2="72"
         style="fill:none"
         x1="1437.332"
         x2="1437.332"
         y1="853"
         id="line84" />
    </g>
    <g
       style="color-interpolation:linearRGB;fill:#262626;fill-opacity:0.14900004;stroke:#262626;stroke-width:1.51181102;stroke-linecap:butt;stroke-linejoin:round;stroke-miterlimit:10;stroke-dasharray:none;stroke-opacity:0.14900004;color-rendering:optimizeQuality;image-rendering:optimizeQuality;text-rendering:geometricPrecision"
       id="g106">
      <line
         y2="72"
         style="fill:none;stroke-width:1.51181102;stroke-miterlimit:10;stroke-dasharray:none"
         x1="565.57648"
         x2="565.57648"
         y1="853"
         id="line88" />
      <line
         y2="72"
         style="fill:none;stroke-width:1.51181102;stroke-miterlimit:10;stroke-dasharray:none"
         x1="678.0611"
         x2="678.0611"
         y1="853"
         id="line90" />
      <line
         y2="72"
         style="fill:none;stroke-width:1.51181102;stroke-miterlimit:10;stroke-dasharray:none"
         x1="790.54572"
         x2="790.54572"
         y1="853"
         id="line92" />
      <line
         y2="72"
         style="fill:none;stroke-width:1.51181102;stroke-miterlimit:10;stroke-dasharray:none"
         x1="903.03027"
         x2="903.03027"
         y1="853"
         id="line94" />
      <line
         y2="72"
         style="fill:none;stroke-width:1.51181102;stroke-miterlimit:10;stroke-dasharray:none"
         x1="1015.5148"
         x2="1015.5148"
         y1="853"
         id="line96" />
      <line
         y2="72"
         style="fill:none;stroke-width:1.51181102;stroke-miterlimit:10;stroke-dasharray:none"
         x1="1127.9994"
         x2="1127.9994"
         y1="853"
         id="line98" />
      <line
         y2="72"
         style="fill:none;stroke-width:1.51181102;stroke-miterlimit:10;stroke-dasharray:none"
         x1="1240.484"
         x2="1240.484"
         y1="853"
         id="line100" />
      <line
         y2="72"
         style="fill:none;stroke-width:1.51181102;stroke-miterlimit:10;stroke-dasharray:none"
         x1="1352.9686"
         x2="1352.9686"
         y1="853"
         id="line102" />
      <line
         y2="72"
         style="fill:none;stroke-width:1.51181102;stroke-miterlimit:10;stroke-dasharray:none"
         x1="1465.4531"
         x2="1465.4531"
         y1="853"
         id="line104" />
    </g>
    <g
       style="color-interpolation:linearRGB;fill:#1a1a1a;fill-opacity:0.25100002;stroke:#1a1a1a;stroke-width:0.75590551;stroke-linecap:butt;stroke-linejoin:bevel;stroke-miterlimit:1;stroke-dasharray:1.51181102, 4.53543307;stroke-dashoffset:0;stroke-opacity:0.25100002;color-rendering:optimizeQuality;image-rendering:optimizeQuality;text-rendering:geometricPrecision"
       id="g150">
      <line
         y2="831.57892"
         style="fill:none;stroke-width:0.75590551;stroke-miterlimit:1;stroke-dasharray:1.51181102, 4.53543307;stroke-dashoffset:0"
         x1="1489.1125"
         x2="498.88751"
         y1="831.57892"
         id="line108" />
      <line
         y2="803.45782"
         style="fill:none;stroke-width:0.75590551;stroke-miterlimit:1;stroke-dasharray:1.51181102, 4.53543307;stroke-dashoffset:0"
         x1="1489.1125"
         x2="498.88751"
         y1="803.45782"
         id="line110" />
      <line
         y2="747.21552"
         style="fill:none;stroke-width:0.75590551;stroke-miterlimit:1;stroke-dasharray:1.51181102, 4.53543307;stroke-dashoffset:0"
         x1="1489.1125"
         x2="498.88751"
         y1="747.21552"
         id="line112" />
      <line
         y2="719.0943"
         style="fill:none;stroke-width:0.75590551;stroke-miterlimit:1;stroke-dasharray:1.51181102, 4.53543307;stroke-dashoffset:0"
         x1="1489.1125"
         x2="498.88751"
         y1="719.0943"
         id="line114" />
      <line
         y2="690.97321"
         style="fill:none;stroke-width:0.75590551;stroke-miterlimit:1;stroke-dasharray:1.51181102, 4.53543307;stroke-dashoffset:0"
         x1="1489.1125"
         x2="498.88751"
         y1="690.97321"
         id="line116" />
      <line
         y2="634.7309"
         style="fill:none;stroke-width:0.75590551;stroke-miterlimit:1;stroke-dasharray:1.51181102, 4.53543307;stroke-dashoffset:0"
         x1="1489.1125"
         x2="498.88751"
         y1="634.7309"
         id="line118" />
      <line
         y2="606.60968"
         style="fill:none;stroke-width:0.75590551;stroke-miterlimit:1;stroke-dasharray:1.51181102, 4.53543307;stroke-dashoffset:0"
         x1="1489.1125"
         x2="498.88751"
         y1="606.60968"
         id="line120" />
      <line
         y2="578.48859"
         style="fill:none;stroke-width:0.75590551;stroke-miterlimit:1;stroke-dasharray:1.51181102, 4.53543307;stroke-dashoffset:0"
         x1="1489.1125"
         x2="498.88751"
         y1="578.48859"
         id="line122" />
      <line
         y2="522.24628"
         style="fill:none;stroke-width:0.75590551;stroke-miterlimit:1;stroke-dasharray:1.51181102, 4.53543307;stroke-dashoffset:0"
         x1="1489.1125"
         x2="498.88751"
         y1="522.24628"
         id="line124" />
      <line
         y2="494.12521"
         style="fill:none;stroke-width:0.75590551;stroke-miterlimit:1;stroke-dasharray:1.51181102, 4.53543307;stroke-dashoffset:0"
         x1="1489.1125"
         x2="498.88751"
         y1="494.12521"
         id="line126" />
      <line
         y2="466.004"
         style="fill:none;stroke-width:0.75590551;stroke-miterlimit:1;stroke-dasharray:1.51181102, 4.53543307;stroke-dashoffset:0"
         x1="1489.1125"
         x2="498.88751"
         y1="466.004"
         id="line128" />
      <line
         y2="409.76169"
         style="fill:none;stroke-width:0.75590551;stroke-miterlimit:1;stroke-dasharray:1.51181102, 4.53543307;stroke-dashoffset:0"
         x1="1489.1125"
         x2="498.88751"
         y1="409.76169"
         id="line130" />
      <line
         y2="381.64059"
         style="fill:none;stroke-width:0.75590551;stroke-miterlimit:1;stroke-dasharray:1.51181102, 4.53543307;stroke-dashoffset:0"
         x1="1489.1125"
         x2="498.88751"
         y1="381.64059"
         id="line132" />
      <line
         y2="353.51941"
         style="fill:none;stroke-width:0.75590551;stroke-miterlimit:1;stroke-dasharray:1.51181102, 4.53543307;stroke-dashoffset:0"
         x1="1489.1125"
         x2="498.88751"
         y1="353.51941"
         id="line134" />
      <line
         y2="297.27719"
         style="fill:none;stroke-width:0.75590551;stroke-miterlimit:1;stroke-dasharray:1.51181102, 4.53543307;stroke-dashoffset:0"
         x1="1489.1125"
         x2="498.88751"
         y1="297.27719"
         id="line136" />
      <line
         y2="269.15601"
         style="fill:none;stroke-width:0.75590551;stroke-miterlimit:1;stroke-dasharray:1.51181102, 4.53543307;stroke-dashoffset:0"
         x1="1489.1125"
         x2="498.88751"
         y1="269.15601"
         id="line138" />
      <line
         y2="241.0349"
         style="fill:none;stroke-width:0.75590551;stroke-miterlimit:1;stroke-dasharray:1.51181102, 4.53543307;stroke-dashoffset:0"
         x1="1489.1125"
         x2="498.88751"
         y1="241.0349"
         id="line140" />
      <line
         y2="184.7926"
         style="fill:none;stroke-width:0.75590551;stroke-miterlimit:1;stroke-dasharray:1.51181102, 4.53543307;stroke-dashoffset:0"
         x1="1489.1125"
         x2="498.88751"
         y1="184.7926"
         id="line142" />
      <line
         y2="156.6714"
         style="fill:none;stroke-width:0.75590551;stroke-miterlimit:1;stroke-dasharray:1.51181102, 4.53543307;stroke-dashoffset:0"
         x1="1489.1125"
         x2="498.88751"
         y1="156.6714"
         id="line144" />
      <line
         y2="128.55029"
         style="fill:none;stroke-width:0.75590551;stroke-miterlimit:1;stroke-dasharray:1.51181102, 4.53543307;stroke-dashoffset:0"
         x1="1489.1125"
         x2="498.88751"
         y1="128.55029"
         id="line146" />
      <line
         y2="72.307999"
         style="fill:none;stroke-width:0.75590551;stroke-miterlimit:1;stroke-dasharray:1.51181102, 4.53543307;stroke-dashoffset:0"
         x1="1489.1125"
         x2="498.88751"
         y1="72.307999"
         id="line148" />
    </g>
    <g
       style="color-interpolation:linearRGB;fill:#262626;fill-opacity:0.14900004;stroke:#262626;stroke-width:1.51181102;stroke-linecap:butt;stroke-linejoin:round;stroke-miterlimit:10;stroke-dasharray:none;stroke-opacity:0.14900004;color-rendering:optimizeQuality;image-rendering:optimizeQuality;text-rendering:geometricPrecision"
       id="g206">
      <line
         x1="1015.5148"
         x2="1015.5148"
         y1="871.10901"
         style="fill:none;fill-opacity:1;stroke-width:1.51181102;stroke-linecap:square;stroke-miterlimit:10;stroke-dasharray:none;stroke-opacity:1;marker-end:url(#Arrow2Mend)"
         y2="30.329666"
         id="line178" />
      <line
         y2="775.33661"
         style="fill:none;stroke-width:1.51181102;stroke-miterlimit:10;stroke-dasharray:none"
         x1="1489.1125"
         x2="498.88751"
         y1="775.33661"
         id="line152" />
      <line
         y2="662.85211"
         style="fill:none;stroke-width:1.51181102;stroke-miterlimit:10;stroke-dasharray:none"
         x1="1489.1125"
         x2="498.88751"
         y1="662.85211"
         id="line154" />
      <line
         y2="550.36737"
         style="fill:none;stroke-width:1.51181102;stroke-miterlimit:10;stroke-dasharray:none"
         x1="1489.1125"
         x2="498.88751"
         y1="550.36737"
         id="line156" />
      <line
         y2="437.8829"
         style="fill:none;stroke-width:1.51181102;stroke-miterlimit:10;stroke-dasharray:none"
         x1="1489.1125"
         x2="498.88751"
         y1="437.8829"
         id="line158" />
      <line
         y2="325.39828"
         style="fill:none;stroke-width:1.51181102;stroke-miterlimit:10;stroke-dasharray:none"
         x1="1489.1125"
         x2="498.88751"
         y1="325.39828"
         id="line160" />
      <line
         y2="212.9137"
         style="fill:none;stroke-width:1.51181102;stroke-miterlimit:10;stroke-dasharray:none"
         x1="1489.1125"
         x2="498.88751"
         y1="212.9137"
         id="line162" />
      <line
         y2="100.4291"
         style="fill:none;stroke-width:1.51181102;stroke-miterlimit:10;stroke-dasharray:none"
         x1="1489.1125"
         x2="498.88751"
         y1="100.4291"
         id="line164" />
      <line
         x1="498.88751"
         x2="1489.1125"
         y1="853"
         style="fill:none;fill-opacity:1;stroke-width:1.51181102;stroke-linecap:square;stroke-miterlimit:10;stroke-dasharray:none;stroke-opacity:1"
         y2="853"
         id="line166" />
      <line
         x1="498.88751"
         x2="1489.1125"
         y1="72"
         style="fill:none;fill-opacity:1;stroke-width:1.51181102;stroke-linecap:square;stroke-miterlimit:10;stroke-dasharray:none;stroke-opacity:1"
         y2="72"
         id="line168" />
      <line
         x1="565.57648"
         x2="565.57648"
         y1="853"
         style="fill:none;fill-opacity:1;stroke-width:1.51181102;stroke-linecap:square;stroke-miterlimit:10;stroke-dasharray:none;stroke-opacity:1"
         y2="843.09778"
         id="line170" />
      <line
         x1="678.0611"
         x2="678.0611"
         y1="853"
         style="fill:none;fill-opacity:1;stroke-width:1.51181102;stroke-linecap:square;stroke-miterlimit:10;stroke-dasharray:none;stroke-opacity:1"
         y2="843.09778"
         id="line172" />
      <line
         x1="790.54572"
         x2="790.54572"
         y1="853"
         style="fill:none;fill-opacity:1;stroke-width:1.51181102;stroke-linecap:square;stroke-miterlimit:10;stroke-dasharray:none;stroke-opacity:1"
         y2="843.09778"
         id="line174" />
      <line
         x1="903.03027"
         x2="903.03027"
         y1="853"
         style="fill:none;fill-opacity:1;stroke-width:1.51181102;stroke-linecap:square;stroke-miterlimit:10;stroke-dasharray:none;stroke-opacity:1"
         y2="843.09778"
         id="line176" />
      <line
         x1="1127.9994"
         x2="1127.9994"
         y1="853"
         style="fill:none;fill-opacity:1;stroke-width:1.51181102;stroke-linecap:square;stroke-miterlimit:10;stroke-dasharray:none;stroke-opacity:1"
         y2="843.09778"
         id="line180" />
      <line
         x1="1240.484"
         x2="1240.484"
         y1="853"
         style="fill:none;fill-opacity:1;stroke-width:1.51181102;stroke-linecap:square;stroke-miterlimit:10;stroke-dasharray:none;stroke-opacity:1"
         y2="843.09778"
         id="line182" />
      <line
         x1="1352.9686"
         x2="1352.9686"
         y1="853"
         style="fill:none;fill-opacity:1;stroke-width:1.51181102;stroke-linecap:square;stroke-miterlimit:10;stroke-dasharray:none;stroke-opacity:1"
         y2="843.09778"
         id="line184" />
      <line
         x1="1465.4531"
         x2="1465.4531"
         y1="853"
         style="fill:none;fill-opacity:1;stroke-width:1.51181102;stroke-linecap:square;stroke-miterlimit:10;stroke-dasharray:none;stroke-opacity:1"
         y2="843.09778"
         id="line186" />
      <line
         x1="565.57648"
         x2="565.57648"
         y1="72"
         style="fill:none;fill-opacity:1;stroke-width:1.51181102;stroke-linecap:square;stroke-miterlimit:10;stroke-dasharray:none;stroke-opacity:1"
         y2="81.902298"
         id="line188" />
      <line
         x1="678.0611"
         x2="678.0611"
         y1="72"
         style="fill:none;fill-opacity:1;stroke-width:1.51181102;stroke-linecap:square;stroke-miterlimit:10;stroke-dasharray:none;stroke-opacity:1"
         y2="81.902298"
         id="line190" />
      <line
         x1="790.54572"
         x2="790.54572"
         y1="72"
         style="fill:none;fill-opacity:1;stroke-width:1.51181102;stroke-linecap:square;stroke-miterlimit:10;stroke-dasharray:none;stroke-opacity:1"
         y2="81.902298"
         id="line192" />
      <line
         x1="903.03027"
         x2="903.03027"
         y1="72"
         style="fill:none;fill-opacity:1;stroke-width:1.51181102;stroke-linecap:square;stroke-miterlimit:10;stroke-dasharray:none;stroke-opacity:1"
         y2="81.902298"
         id="line194" />
      <line
         x1="1015.5148"
         x2="1015.5148"
         y1="72"
         style="fill:none;fill-opacity:1;stroke-width:1.51181102;stroke-linecap:square;stroke-miterlimit:10;stroke-dasharray:none;stroke-opacity:1"
         y2="81.902298"
         id="line196" />
      <line
         x1="1127.9994"
         x2="1127.9994"
         y1="72"
         style="fill:none;fill-opacity:1;stroke-width:1.51181102;stroke-linecap:square;stroke-miterlimit:10;stroke-dasharray:none;stroke-opacity:1"
         y2="81.902298"
         id="line198" />
      <line
         x1="1240.484"
         x2="1240.484"
         y1="72"
         style="fill:none;fill-opacity:1;stroke-width:1.51181102;stroke-linecap:square;stroke-miterlimit:10;stroke-dasharray:none;stroke-opacity:1"
         y2="81.902298"
         id="line200" />
      <line
         x1="1352.9686"
         x2="1352.9686"
         y1="72"
         style="fill:none;fill-opacity:1;stroke-width:1.51181102;stroke-linecap:square;stroke-miterlimit:10;stroke-dasharray:none;stroke-opacity:1"
         y2="81.902298"
         id="line202" />
      <line
         x1="1465.4531"
         x2="1465.4531"
         y1="72"
         style="fill:none;fill-opacity:1;stroke-width:1.51181102;stroke-linecap:square;stroke-miterlimit:10;stroke-dasharray:none;stroke-opacity:1"
         y2="81.902298"
         id="line204" />
    </g>
    <g
       transform="matrix(1.5,0,0,1.5,565.7767,889.41653)"
       style="font-size:13px;font-family:IPAPGothic;color-interpolation:linearRGB;fill:#262626;stroke:#262626;color-rendering:optimizeQuality;image-rendering:optimizeQuality;text-rendering:geometricPrecision"
       id="g210">
      <text
         x="-15"
         xml:space="preserve"
         y="12"
         style="stroke:none"
         id="text208">-800</text>
    </g>
    <g
       transform="matrix(1.5,0,0,1.5,678.2613,889.32132)"
       style="font-size:13px;font-family:IPAPGothic;color-interpolation:linearRGB;fill:#262626;stroke:#262626;color-rendering:optimizeQuality;image-rendering:optimizeQuality;text-rendering:geometricPrecision"
       id="g214">
      <text
         x="-15"
         xml:space="preserve"
         y="12"
         style="stroke:none"
         id="text212">-600</text>
    </g>
    <g
       transform="matrix(1.5,0,0,1.5,790.7459,889.32132)"
       style="font-size:13px;font-family:IPAPGothic;color-interpolation:linearRGB;fill:#262626;stroke:#262626;color-rendering:optimizeQuality;image-rendering:optimizeQuality;text-rendering:geometricPrecision"
       id="g218">
      <text
         x="-15"
         xml:space="preserve"
         y="12"
         style="stroke:none"
         id="text216">-400</text>
    </g>
    <g
       transform="matrix(1.5,0,0,1.5,903.2305,889.32132)"
       style="font-size:13px;font-family:IPAPGothic;color-interpolation:linearRGB;fill:#262626;stroke:#262626;color-rendering:optimizeQuality;image-rendering:optimizeQuality;text-rendering:geometricPrecision"
       id="g222">
      <text
         x="-15"
         xml:space="preserve"
         y="12"
         style="stroke:none"
         id="text220">-200</text>
    </g>
    <g
       transform="matrix(1.5,0,0,1.5,1015.7161,889.32132)"
       style="font-size:13px;font-family:IPAPGothic;color-interpolation:linearRGB;fill:#262626;stroke:#262626;color-rendering:optimizeQuality;image-rendering:optimizeQuality;text-rendering:geometricPrecision"
       id="g226">
      <text
         x="-4.5"
         xml:space="preserve"
         y="12"
         style="stroke:none"
         id="text224">0</text>
    </g>
    <g
       transform="matrix(1.5,0,0,1.5,1128.0462,889.32132)"
       style="font-size:13px;font-family:IPAPGothic;color-interpolation:linearRGB;fill:#262626;stroke:#262626;color-rendering:optimizeQuality;image-rendering:optimizeQuality;text-rendering:geometricPrecision"
       id="g230">
      <text
         x="-12.5"
         xml:space="preserve"
         y="12"
         style="stroke:none"
         id="text228">200</text>
    </g>
    <g
       transform="matrix(1.5,0,0,1.5,1240.6577,889.32132)"
       style="font-size:13px;font-family:IPAPGothic;color-interpolation:linearRGB;fill:#262626;stroke:#262626;color-rendering:optimizeQuality;image-rendering:optimizeQuality;text-rendering:geometricPrecision"
       id="g234">
      <text
         x="-12.5"
         xml:space="preserve"
         y="12"
         style="stroke:none"
         id="text232">400</text>
    </g>
    <g
       transform="matrix(1.5,0,0,1.5,1352.9979,889.32132)"
       style="font-size:13px;font-family:IPAPGothic;color-interpolation:linearRGB;fill:#262626;stroke:#262626;color-rendering:optimizeQuality;image-rendering:optimizeQuality;text-rendering:geometricPrecision"
       id="g238">
      <text
         x="-12.5"
         xml:space="preserve"
         y="12"
         style="stroke:none"
         id="text236">600</text>
    </g>
    <g
       transform="matrix(1.5,0,0,1.5,1465.5506,889.41653)"
       style="font-size:13px;font-family:IPAPGothic;color-interpolation:linearRGB;fill:#262626;stroke:#262626;color-rendering:optimizeQuality;image-rendering:optimizeQuality;text-rendering:geometricPrecision"
       id="g242">
      <text
         x="-12.5"
         xml:space="preserve"
         y="12"
         style="stroke:none"
         id="text240">800</text>
    </g>
    <g
       style="color-interpolation:linearRGB;fill:#262626;stroke:#262626;stroke-width:1.51181102;stroke-linejoin:round;stroke-miterlimit:10;stroke-dasharray:none;color-rendering:optimizeQuality;image-rendering:optimizeQuality;text-rendering:geometricPrecision"
       id="g276">
      <line
         y2="325.39828"
         style="fill:none;stroke-width:1.51181102;stroke-miterlimit:10;stroke-dasharray:none;marker-end:url(#marker5137)"
         x1="474.59964"
         x2="1558.921"
         y1="325.39828"
         id="line256" />
      <line
         y2="72"
         style="fill:none;stroke-width:1.51181102;stroke-miterlimit:10;stroke-dasharray:none"
         x1="498.88751"
         x2="498.88751"
         y1="853"
         id="line244" />
      <line
         y2="72"
         style="fill:none;stroke-width:1.51181102;stroke-miterlimit:10;stroke-dasharray:none"
         x1="1489.1125"
         x2="1489.1125"
         y1="853"
         id="line246" />
      <line
         y2="775.33661"
         style="fill:none;stroke-width:1.51181102;stroke-miterlimit:10;stroke-dasharray:none"
         x1="498.88751"
         x2="508.78979"
         y1="775.33661"
         id="line248" />
      <line
         y2="662.85211"
         style="fill:none;stroke-width:1.51181102;stroke-miterlimit:10;stroke-dasharray:none"
         x1="498.88751"
         x2="508.78979"
         y1="662.85211"
         id="line250" />
      <line
         y2="550.36737"
         style="fill:none;stroke-width:1.51181102;stroke-miterlimit:10;stroke-dasharray:none"
         x1="498.88751"
         x2="508.78979"
         y1="550.36737"
         id="line252" />
      <line
         y2="437.8829"
         style="fill:none;stroke-width:1.51181102;stroke-miterlimit:10;stroke-dasharray:none"
         x1="498.88751"
         x2="508.78979"
         y1="437.8829"
         id="line254" />
      <line
         y2="212.9137"
         style="fill:none;stroke-width:1.51181102;stroke-miterlimit:10;stroke-dasharray:none"
         x1="498.88751"
         x2="508.78979"
         y1="212.9137"
         id="line258" />
      <line
         y2="100.4291"
         style="fill:none;stroke-width:1.51181102;stroke-miterlimit:10;stroke-dasharray:none"
         x1="498.88751"
         x2="508.78979"
         y1="100.4291"
         id="line260" />
      <line
         y2="775.33661"
         style="fill:none;stroke-width:1.51181102;stroke-miterlimit:10;stroke-dasharray:none"
         x1="1489.1125"
         x2="1479.2102"
         y1="775.33661"
         id="line262" />
      <line
         y2="662.85211"
         style="fill:none;stroke-width:1.51181102;stroke-miterlimit:10;stroke-dasharray:none"
         x1="1489.1125"
         x2="1479.2102"
         y1="662.85211"
         id="line264" />
      <line
         y2="550.36737"
         style="fill:none;stroke-width:1.51181102;stroke-miterlimit:10;stroke-dasharray:none"
         x1="1489.1125"
         x2="1479.2102"
         y1="550.36737"
         id="line266" />
      <line
         y2="437.8829"
         style="fill:none;stroke-width:1.51181102;stroke-miterlimit:10;stroke-dasharray:none"
         x1="1489.1125"
         x2="1479.2102"
         y1="437.8829"
         id="line268" />
      <line
         y2="325.39828"
         style="fill:none;stroke-width:1.51181102;stroke-miterlimit:10;stroke-dasharray:none"
         x1="1489.1125"
         x2="1479.2102"
         y1="325.39828"
         id="line270" />
      <line
         y2="212.9137"
         style="fill:none;stroke-width:1.51181102;stroke-miterlimit:10;stroke-dasharray:none"
         x1="1489.1125"
         x2="1479.2102"
         y1="212.9137"
         id="line272" />
      <line
         y2="100.4291"
         style="fill:none;stroke-width:1.51181102;stroke-miterlimit:10;stroke-dasharray:none"
         x1="1489.1125"
         x2="1479.2102"
         y1="100.4291"
         id="line274" />
    </g>
    <g
       transform="matrix(1.5,0,0,1.5,465.47486,775.22332)"
       style="font-size:13px;font-family:IPAPGothic;color-interpolation:linearRGB;fill:#262626;stroke:#262626;color-rendering:optimizeQuality;image-rendering:optimizeQuality;text-rendering:geometricPrecision"
       id="g280">
      <text
         x="-30"
         xml:space="preserve"
         y="5"
         style="stroke:none"
         id="text278">-800</text>
    </g>
    <g
       transform="matrix(1.5,0,0,1.5,465.47486,662.73564)"
       style="font-size:13px;font-family:IPAPGothic;color-interpolation:linearRGB;fill:#262626;stroke:#262626;color-rendering:optimizeQuality;image-rendering:optimizeQuality;text-rendering:geometricPrecision"
       id="g284">
      <text
         x="-30"
         xml:space="preserve"
         y="5"
         style="stroke:none"
         id="text282">-600</text>
    </g>
    <g
       transform="matrix(1.5,0,0,1.5,465.47486,550.25094)"
       style="font-size:13px;font-family:IPAPGothic;color-interpolation:linearRGB;fill:#262626;stroke:#262626;color-rendering:optimizeQuality;image-rendering:optimizeQuality;text-rendering:geometricPrecision"
       id="g288">
      <text
         x="-30"
         xml:space="preserve"
         y="5"
         style="stroke:none"
         id="text286">-400</text>
    </g>
    <g
       transform="matrix(1.5,0,0,1.5,465.47486,437.76644)"
       style="font-size:13px;font-family:IPAPGothic;color-interpolation:linearRGB;fill:#262626;stroke:#262626;color-rendering:optimizeQuality;image-rendering:optimizeQuality;text-rendering:geometricPrecision"
       id="g292">
      <text
         x="-30"
         xml:space="preserve"
         y="5"
         style="stroke:none"
         id="text290">-200</text>
    </g>
    <g
       transform="matrix(1.5,0,0,1.5,465.54811,325.6914)"
       style="font-size:13px;font-family:IPAPGothic;color-interpolation:linearRGB;fill:#262626;stroke:#262626;color-rendering:optimizeQuality;image-rendering:optimizeQuality;text-rendering:geometricPrecision"
       id="g296">
      <text
         x="-9"
         xml:space="preserve"
         y="5"
         style="stroke:none"
         id="text294">0</text>
    </g>
    <g
       transform="matrix(1.5,0,0,1.5,464.94459,212.79724)"
       style="font-size:13px;font-family:IPAPGothic;color-interpolation:linearRGB;fill:#262626;stroke:#262626;color-rendering:optimizeQuality;image-rendering:optimizeQuality;text-rendering:geometricPrecision"
       id="g300">
      <text
         x="-25"
         xml:space="preserve"
         y="5"
         style="stroke:none"
         id="text298">200</text>
    </g>
    <g
       transform="matrix(1.5,0,0,1.5,464.94459,100.31264)"
       style="font-size:13px;font-family:IPAPGothic;color-interpolation:linearRGB;fill:#262626;stroke:#262626;color-rendering:optimizeQuality;image-rendering:optimizeQuality;text-rendering:geometricPrecision"
       id="g304">
      <text
         x="-25"
         xml:space="preserve"
         y="5"
         style="stroke:none"
         id="text302">400</text>
    </g>
    <g
       style="color-interpolation:linearRGB;fill:#0072bd;stroke:#0072bd;stroke-width:1.88976383;stroke-linecap:butt;stroke-linejoin:round;stroke-miterlimit:10;stroke-dasharray:none;color-rendering:optimizeQuality;image-rendering:optimizeQuality;text-rendering:geometricPrecision"
       id="g312">
      <path
         d="m 882.2056,71.9953 0.5981,7.785 1.8123,23.351 1.8009,22.9682 1.7898,22.5855 1.7784,22.2027 1.7672,21.8199 1.7559,21.4372 1.7447,21.0544 1.7335,20.6716 1.7222,20.2888 1.7109,19.9061 1.6996,19.5233 1.6885,19.1405 1.6771,18.7577 1.6659,18.375 1.6546,17.9922 1.6433,17.6095 1.6322,17.2267 1.6208,16.8438 1.6097,16.4611 1.5983,16.0784 1.587,15.6955 1.5759,15.3128 1.5645,14.9301 1.5533,14.5473 1.5421,14.1644 1.5308,13.7817 1.5195,13.399 1.5083,13.0161 1.497,12.6334 1.4857,12.2507 1.4746,11.8678 1.4632,11.4851 1.452,11.1023 1.4407,10.7195 1.4295,10.3368 1.4182,9.954 1.4069,9.5712 1.3957,9.1884 1.3845,8.8057 1.3731,8.4229 1.362,8.0401 1.3506,7.6574 1.3394,7.2746 1.3282,6.8918 1.3168,6.509 1.3056,6.1263 1.2944,5.7435 1.2832,5.3607 1.2718,4.978 1.2606,4.5951 1.2494,4.2124 1.2381,3.8297 1.2268,3.4469 1.2155,3.0641 1.2043,2.6812 1.1931,2.2986 1.1817,1.9158 1.1706,1.533 1.1593,1.1502 1.148,0.7675 1.1368,0.3846 1.1255,0.002 1.1142,-0.3809 1.103,-0.7636 1.0917,-1.1465 1.0805,-1.5291 1.0692,-1.912 1.058,-2.2947 1.0467,-2.6775 1.0354,-3.0603 1.0241,-3.443 1.013,-3.8258 1.0016,-4.2086 0.9904,-4.5913 0.9792,-4.9742 0.9678,-5.3568 0.9567,-5.7397 0.9454,-6.1225 0.9341,-6.5051 0.9229,-6.888 0.9115,-7.2708 0.9004,-7.6536 0.8891,-8.0363 0.8778,-8.419 0.8666,-8.8019 0.8553,-9.1846 0.844,-9.5674 0.8328,-9.9502 0.8216,-10.3329 0.8103,-10.7157 0.799,-11.0985 0.7877,-11.4812 0.7765,-11.864 0.7652,-12.2469 0.7541,-12.6295 0.7427,-13.0124 0.7314,-13.3951 0.7203,-13.7779 0.7089,-14.1607 0.6977,-14.5434 0.6864,-14.9262 0.6752,-15.309 0.6639,-15.6917 0.6527,-16.0745 0.6414,-16.4573 0.6301,-16.8401 0.6189,-17.2228 0.6077,-17.6056 0.5964,-17.9884 0.5851,-18.3712 0.5738,-18.7539 0.5626,-19.1367 0.5514,-19.5195 0.5401,-19.9022 0.5288,-20.285 0.5176,-20.6678 0.5063,-21.0506 0.4951,-21.4333 0.4837,-21.8161 0.4726,-22.1989 0.4613,-22.5816 0.45,-22.9644 0.4387,-23.3472 0.1445,-8.0202"
         style="fill:none;fill-rule:evenodd;stroke-width:1.88976383;stroke-miterlimit:10;stroke-dasharray:none"
         id="path306"
         inkscape:connector-curvature="0" />
      <circle
         style="fill:none;stroke:#ff0000;stroke-width:2.83464575;stroke-linejoin:miter;stroke-miterlimit:10;stroke-dasharray:none"
         r="5.9374504"
         cx="972.9151"
         cy="803.26654"
         id="circle308" />
      <line
         x1="973.89301"
         x2="960.41437"
         y1="835.18591"
         style="fill:none;stroke:#d95319;stroke-width:1.51181102;stroke-miterlimit:10;stroke-dasharray:4.53543307, 4.53543307;stroke-dashoffset:0"
         y2="376.90964"
         id="line310" />
    </g>
    <flowRoot
       xml:space="preserve"
       id="flowRoot4797"
       style="font-style:normal;font-variant:normal;font-weight:300;font-stretch:normal;font-size:32px;line-height:1.25;font-family:Roboto;-inkscape-font-specification:'Roboto, Light';font-variant-ligatures:normal;font-variant-caps:normal;font-variant-numeric:normal;font-feature-settings:normal;text-align:start;letter-spacing:0px;word-spacing:0px;writing-mode:lr-tb;text-anchor:start;fill:#000000;fill-opacity:1;stroke:none"
       transform="matrix(0.9,0,0,0.9,258.50313,77.799637)"><flowRegion
         id="flowRegion4799"><rect
           id="rect4801"
           width="953.44708"
           height="168.7372"
           x="517.6792"
           y="-133.05803" /></flowRegion><flowPara
         id="flowPara4803">Região de Factibilidade do sistema em estudo</flowPara></flowRoot>    <flowRoot
       transform="translate(989.02089,415.85225)"
       style="font-style:normal;font-variant:normal;font-weight:300;font-stretch:normal;font-size:32px;line-height:1.25;font-family:Roboto;-inkscape-font-specification:'Roboto, Light';font-variant-ligatures:normal;font-variant-caps:normal;font-variant-numeric:normal;font-feature-settings:normal;text-align:start;letter-spacing:0px;word-spacing:0px;writing-mode:lr-tb;text-anchor:start;fill:#000000;fill-opacity:1;stroke:none"
       id="flowRoot5295"
       xml:space="preserve"><flowRegion
         id="flowRegion5291"><rect
           y="-133.05803"
           x="517.6792"
           height="168.7372"
           width="953.44708"
           id="rect5289" /></flowRegion><flowPara
         id="flowPara5293">P</flowPara></flowRoot>    <flowRoot
       xml:space="preserve"
       id="flowRoot5303"
       style="font-style:normal;font-variant:normal;font-weight:300;font-stretch:normal;font-size:32px;line-height:1.25;font-family:Roboto;-inkscape-font-specification:'Roboto, Light';font-variant-ligatures:normal;font-variant-caps:normal;font-variant-numeric:normal;font-feature-settings:normal;text-align:start;letter-spacing:0px;word-spacing:0px;writing-mode:lr-tb;text-anchor:start;fill:#000000;fill-opacity:1;stroke:none"
       transform="translate(513.93557,158.65088)"><flowRegion
         id="flowRegion5299"><rect
           id="rect5297"
           width="953.44708"
           height="168.7372"
           x="517.6792"
           y="-133.05803" /></flowRegion><flowPara
         id="flowPara5301">Q</flowPara></flowRoot>  </g>
</svg>
